Project ID;Klantnaam;Medewerker ID;Medewerker naam;Gewerkt h;datum;issue;omschrijving;
'022258;Warchild;S034;richard.van.yperen;1.0;2016-05-23;WARCHILD-11;
'022258;Warchild;S034;richard.van.yperen;0.5;2016-05-26;WARCHILD-11;
'022258;Warchild;S034;richard.van.yperen;1.0;2016-05-23;WARCHILD-13;
'022258;Warchild;S034;richard.van.yperen;0.5;2016-05-25;WARCHILD-13;
'022258;Warchild;S034;richard.van.yperen;1.0;2016-05-27;WARCHILD-13;
'022258;Warchild;S034;richard.van.yperen;2.5;2016-05-23;WARCHILD-15;
'022258;Warchild;S034;richard.van.yperen;0.5;2016-05-25;WARCHILD-15;
'022258;Warchild;S034;richard.van.yperen;0.5;2016-05-23;WARCHILD-17;
'022258;Warchild;S034;richard.van.yperen;2.0;2016-05-23;WARCHILD-17;
'022258;Warchild;S034;richard.van.yperen;0.75;2016-05-24;WARCHILD-17;
'022258;Warchild;S034;richard.van.yperen;0.5;2016-05-26;WARCHILD-17;
'022258;Warchild;S033;martijn.snijder;1.0;2016-05-25;WARCHILD-2;
'022258;Warchild;S028;jos;5.0;2016-05-31;WARCHILD-23;
'022258;Warchild;S033;martijn.snijder;6.0;2016-05-20;WARCHILD-24;
'022258;Warchild;S033;martijn.snijder;6.0;2016-05-22;WARCHILD-24;
'022258;Warchild;S033;martijn.snijder;4.0;2016-05-25;WARCHILD-24;
'022258;Warchild;S033;martijn.snijder;1.5;2016-05-25;WARCHILD-27;
'022258;Warchild;S033;martijn.snijder;1.0;2016-05-27;WARCHILD-29;
'022258;Warchild;S034;richard.van.yperen;0.5;2016-05-29;WARCHILD-30;
'022258;Warchild;S034;richard.van.yperen;1.0;2016-05-27;WARCHILD-33;
'022258;Warchild;S034;richard.van.yperen;0.25;2016-05-27;WARCHILD-33;
'022258;Warchild;S034;richard.van.yperen;0.5;2016-05-30;WARCHILD-33;
'022258;Warchild;S034;richard.van.yperen;0.5;2016-05-24;WARCHILD-4;
'022258;Warchild;S034;richard.van.yperen;0.5;2016-05-25;WARCHILD-4;
'022258;Warchild;S034;richard.van.yperen;0.5;2016-05-26;WARCHILD-4;
'022258;Warchild;S034;richard.van.yperen;0.41666666;2016-05-23;WARCHILD-7;
'022258;Warchild;S034;richard.van.yperen;1.8333334;2016-05-23;WARCHILD-7;
'022258;Warchild;S034;richard.van.yperen;1.0;2016-05-26;WARCHILD-9;
'022258;Warchild;S034;richard.van.yperen;1.0;2016-05-27;WARCHILD-9;
'022257;022257;S007;martin.molenkamp;8.0;2016-05-24;DKVM-5;
'022257;022257;S005;xander;6.5;2016-05-24;DKVM-5;
'022257;022257;S034;richard.van.yperen;5.5;2016-05-24;DKVM-5;
'022257;022257;S002;gijs.epping;5.0;2016-05-24;DKVM-5;
'022257;022257;S021;ron.peeters;0.5;2016-05-19;DKVM-1;
'022257;022257;S021;ron.peeters;1.5;2016-05-25;DKVM-10;
'022228;022228;S007;martin.molenkamp;2.0;2016-04-18;IDA-1;
'022228;022228;S007;martin.molenkamp;1.0;2016-04-26;IDA-1;
'022228;022228;S005;xander;0.5;2016-05-03;IDA-1;
'022228;022228;S011;maarten.jongerius;1.0;2016-05-03;IDA-1;
'022228;022228;S007;martin.molenkamp;5.0;2016-05-04;IDA-1;
'022228;022228;S023;tim;4.0;2016-05-04;IDA-1;
'022228;022228;S005;xander;4.0;2016-05-04;IDA-1;
'022228;022228;S011;maarten.jongerius;0.25;2016-05-04;IDA-1;
'022228;022228;S005;xander;1.0;2016-05-06;IDA-1;
'022228;022228;S023;tim;0.5;2016-05-19;IDA-1;
'022228;022228;S011;maarten.jongerius;1.25;2016-05-19;IDA-1;
'022228;022228;S005;xander;1.0;2016-05-19;IDA-1;
'022228;022228;S009;michiel;1.0;2016-05-19;IDA-1;
'022228;022228;S007;martin.molenkamp;8.0;2016-05-25;IDA-1;
'022228;022228;S005;xander;1.5;2016-05-25;IDA-1;
'022191;022191;S020;jimmy;1.0;2016-05-25;DOS-31;
'022191;022191;S023;tim;0.5;2016-05-25;DOS-31;
'022191;022191;S020;jimmy;1.0;2016-05-31;DOS-31;
'022191;022191;S020;jimmy;1.5;2016-05-27;DOS-32;
'022191;022191;S020;jimmy;2.0;2016-05-31;DOS-34;
'022191;022191;S020;jimmy;1.0;2016-04-05;DOS-1;
'022191;022191;S007;martin.molenkamp;1.0;2016-04-05;DOS-1;
'022191;022191;S009;michiel;1.0;2016-04-05;DOS-1;
'022191;022191;S020;jimmy;1.0;2016-04-07;DOS-1;
'022191;022191;S020;jimmy;0.5;2016-04-11;DOS-1;
'022191;022191;S020;jimmy;2.25;2016-04-11;DOS-1;
'022191;022191;S007;martin.molenkamp;2.0;2016-04-11;DOS-1;
'022191;022191;S023;tim;1.5;2016-04-11;DOS-1;
'022191;022191;S009;michiel;1.5;2016-04-11;DOS-1;
'022191;022191;S020;jimmy;1.5;2016-04-14;DOS-1;
'022191;022191;S020;jimmy;1.75;2016-05-31;DOS-18;
'022191;022191;S020;jimmy;1.0;2016-04-12;DOS-19;
'022191;022191;S020;jimmy;2.0;2016-05-31;DOS-19;
'022191;022191;S020;jimmy;1.0;2016-04-11;DOS-2;
'022191;022191;S020;jimmy;2.0;2016-04-11;DOS-3;
'022191;022191;S020;jimmy;1.5;2016-04-12;DOS-3;
'022191;022191;S020;jimmy;0.5;2016-04-12;DOS-3;
'022191;022191;S020;jimmy;1.0;2016-04-12;DOS-3;
'022191;022191;S020;jimmy;1.0;2016-04-12;DOS-3;
'022191;022191;S021;ron.peeters;0.5;2016-04-19;DOS-3;
'022191;022191;S020;jimmy;1.0;2016-05-31;DOS-5;
'022190;022190;S007;martin.molenkamp;1.0;2016-04-01;VAL-1;
'022190;022190;S020;jimmy;1.0;2016-04-05;VAL-1;
'022190;022190;S007;martin.molenkamp;1.0;2016-04-05;VAL-1;
'022190;022190;S009;michiel;1.0;2016-04-05;VAL-1;
'022190;022190;S020;jimmy;1.5;2016-04-07;VAL-1;
'022190;022190;S007;martin.molenkamp;2.0;2016-04-10;VAL-1;
'022190;022190;S020;jimmy;1.0;2016-04-11;VAL-1;
'022190;022190;S020;jimmy;2.25;2016-04-14;VAL-1;
'022190;022190;S020;jimmy;2.0;2016-04-14;VAL-1;
'022190;022190;S020;jimmy;1.0;2016-04-14;VAL-1;
'022190;022190;S021;ron.peeters;2.5;2016-04-14;VAL-1;
'022190;022190;S023;tim;2.0;2016-04-14;VAL-1;
'022190;022190;S009;michiel;2.0;2016-04-14;VAL-1;
'022190;022190;S020;jimmy;1.5;2016-04-28;VAL-21;
'022137;022137;S011;maarten.jongerius;1.0;2016-05-20;MAGT2-64;
'022110;022110;S005;xander;2.5;2016-05-17;DLT-3;
'022110;022110;S021;ron.peeters;2.5;2016-04-11;DLT-6;
'022110;022110;S021;ron.peeters;1.0;2016-04-11;DLT-6;
'022110;022110;S021;ron.peeters;1.0;2016-05-10;DLT-6;
'022110;022110;S021;ron.peeters;0.75;2016-05-10;DLT-6;
'022110;022110;S023;tim;1.5;2016-05-12;DLT-12;
'022110;022110;S009;michiel;3.0;2016-05-18;DLT-19;
'022110;022110;S009;michiel;5.25;2016-05-19;DLT-19;
'022110;022110;S009;michiel;7.25;2016-05-20;DLT-19;
'022110;022110;S009;michiel;3.0;2016-05-24;DLT-19;
'022110;022110;S023;tim;0.75;2016-05-17;DLT-20;
'022110;022110;S023;tim;4.0;2016-05-20;DLT-20;
'022110;022110;S023;tim;1.75;2016-05-20;DLT-21;
'022110;022110;S023;tim;2.0;2016-05-25;DLT-21;
'022110;022110;S023;tim;1.0;2016-05-20;DLT-22;
'022110;022110;S023;tim;3.5;2016-05-25;DLT-22;
'022110;022110;S009;michiel;4.0;2016-05-25;DLT-22;
'022110;022110;S009;michiel;2.0;2016-05-26;DLT-22;
'022110;022110;S009;michiel;1.5;2016-05-26;DLT-22;
'022110;022110;S023;tim;1.25;2016-05-25;DLT-23;
'022110;022110;S005;xander;2.0;2016-05-27;DLT-25;
'022110;022110;S005;xander;4.0;2016-05-31;DLT-25;
'022110;022110;S005;xander;4.75;2016-05-27;DLT-26;
'022110;022110;S005;xander;3.25;2016-05-31;DLT-26;
'022110;022110;S011;maarten.jongerius;3.75;2016-05-24;DLT-27;
'022110;022110;S011;maarten.jongerius;6.5;2016-05-25;DLT-27;
'022110;022110;S011;maarten.jongerius;2.75;2016-05-26;DLT-27;
'022110;022110;S005;xander;6.0;2016-05-11;DLT-4;
'022110;022110;S005;xander;4.0;2016-05-17;DLT-4;
'022110;022110;S005;xander;4.0;2016-05-18;DLT-4;
'022110;022110;S005;xander;5.0;2016-05-19;DLT-4;
'022110;022110;S005;xander;4.0;2016-05-20;DLT-4;
'022110;022110;S005;xander;0.5;2016-05-25;DLT-4;
'022110;022110;S005;xander;4.0;2016-05-26;DLT-4;
'022110;022110;S005;xander;1.5;2016-05-18;DLT-41;
'022110;022110;S005;xander;1.0;2016-05-19;DLT-41;
'022110;022110;S005;xander;1.0;2016-05-24;DLT-41;
'022110;022110;S005;xander;1.5;2016-05-27;DLT-41;
'022110;022110;S007;martin.molenkamp;2.0;2016-04-11;DLT-2;
'022110;022110;S007;martin.molenkamp;2.0;2016-04-18;DLT-2;
'022110;022110;S007;martin.molenkamp;1.0;2016-04-20;DLT-2;
'022110;022110;S005;xander;1.0;2016-04-20;DLT-2;
'022110;022110;S007;martin.molenkamp;1.0;2016-04-26;DLT-2;
'022110;022110;S011;maarten.jongerius;1.0;2016-05-17;DLT-2;
'022110;022110;S007;martin.molenkamp;3.0;2016-05-17;DLT-2;
'022110;022110;S005;xander;0.5;2016-05-17;DLT-2;
'022110;022110;S005;xander;1.5;2016-05-18;DLT-2;
'022110;022110;S011;maarten.jongerius;0.5;2016-05-18;DLT-2;
'022110;022110;S005;xander;0.75;2016-05-25;DLT-2;
'022110;022110;S011;maarten.jongerius;0.75;2016-05-25;DLT-2;
'022110;022110;S011;maarten.jongerius;0.25;2016-05-26;DLT-2;
'022110;022110;S021;ron.peeters;1.0;2016-05-11;DLT-10;
'022110;022110;S021;ron.peeters;0.5;2016-04-11;DLT-14;
'022110;022110;S021;ron.peeters;0.5;2016-04-11;DLT-15;
'022110;022110;S011;maarten.jongerius;1.0;2016-05-26;DLT-28;
'022110;022110;S011;maarten.jongerius;7.0;2016-05-27;DLT-28;
'022110;022110;S011;maarten.jongerius;3.25;2016-05-31;DLT-29;
'022110;022110;S021;ron.peeters;0.5;2016-04-11;DLT-9;
'022084;Eteha;S020;jimmy;0.5;2016-04-12;ETH-17;
'022084;Eteha;S024;jordi;0.5;2016-04-12;ETH-17;
'022084;Eteha;S021;ron.peeters;0.25;2016-04-11;ETH-6;
'022084;Eteha;S021;ron.peeters;0.25;2016-04-20;ETH-6;
'022084;Eteha;S021;ron.peeters;0.25;2016-05-03;ETH-6;
'022084;Eteha;S021;ron.peeters;0.5;2016-05-17;ETH-6;
'022084;Eteha;S024;jordi;0.75;2016-05-20;ETH-6;
'022084;Eteha;S024;jordi;0.5;2016-05-25;ETH-6;
'022033;022033;S007;martin.molenkamp;2.0;2016-04-01;COM-25;
'022033;022033;S007;martin.molenkamp;1.0;2016-04-04;COM-25;
'022033;022033;S007;martin.molenkamp;1.0;2016-04-28;COM-25;
'022025;022025;S021;ron.peeters;3.0;2016-04-19;AJAX-47;
'022023;022023;S020;jimmy;0.5;2016-04-08;VBH-50;
'022023;022023;S020;jimmy;1.0;2016-04-08;VBH-50;
'022023;022023;S024;jordi;0.5;2016-05-11;VBH-51;
'022023;022023;S024;jordi;1.0;2016-05-13;VBH-52;
'022023;022023;S024;jordi;1.0;2016-05-17;VBH-52;
'022023;022023;S021;ron.peeters;1.0;2016-05-18;VBH-52;
'022023;022023;S021;ron.peeters;3.0;2016-05-31;VBH-52;
'022022;022022;S021;ron.peeters;0.5;2016-05-09;SPOR-51;
'022022;022022;S021;ron.peeters;0.33333334;2016-05-23;SPOR-51;
'022022;022022;S024;jordi;1.0;2016-05-24;SPOR-51;
'022022;022022;S021;ron.peeters;1.0;2016-05-24;SPOR-51;
'022022;022022;S021;ron.peeters;0.5;2016-05-30;SPOR-51;
'022022;022022;S024;jordi;1.0;2016-04-01;SPOR-52;
'022022;022022;S021;ron.peeters;0.5;2016-04-05;SPOR-52;
'022022;022022;S020;jimmy;1.0;2016-04-06;SPOR-52;
'022022;022022;S020;jimmy;1.5;2016-04-07;SPOR-52;
'022022;022022;S024;jordi;0.5;2016-04-26;SPOR-52;
'022022;022022;S021;ron.peeters;0.5;2016-04-05;SPOR-53;
'022022;022022;S028;jos;0.5;2016-04-05;SPOR-53;
'022022;022022;S021;ron.peeters;0.25;2016-05-04;SPOR-54;
'022022;022022;S021;ron.peeters;0.25;2016-05-04;SPOR-54;
'022022;022022;S021;ron.peeters;0.25;2016-05-09;SPOR-54;
'022022;022022;S021;ron.peeters;1.75;2016-05-09;SPOR-54;
'022022;022022;S020;jimmy;1.0;2016-05-17;SPOR-54;
'022022;022022;S020;jimmy;1.25;2016-05-18;SPOR-54;
'022022;022022;S021;ron.peeters;0.75;2016-05-19;SPOR-54;
'022022;022022;S011;maarten.jongerius;0.25;2016-05-19;SPOR-54;
'022022;022022;S024;jordi;0.5;2016-04-25;SPOR-55;
'022022;022022;S024;jordi;0.5;2016-04-25;SPOR-56;
'022022;022022;S024;jordi;1.0;2016-04-26;SPOR-56;
'022022;022022;S024;jordi;0.25;2016-05-18;SPOR-58;
'022022;022022;S021;ron.peeters;0.25;2016-05-19;SPOR-58;
'022022;022022;S021;ron.peeters;0.25;2016-05-19;SPOR-58;
'022022;022022;S021;ron.peeters;0.75;2016-05-19;SPOR-58;
'022022;022022;S021;ron.peeters;0.25;2016-05-23;SPOR-58;
'022022;022022;S021;ron.peeters;0.25;2016-05-23;SPOR-60;
'022022;022022;S002;gijs.epping;0.75;2016-05-25;SPOR-60;
'022022;022022;S021;ron.peeters;0.25;2016-05-31;SPOR-60;
'022022;022022;S024;jordi;0.75;2016-05-24;SPOR-61;
'022022;022022;S024;jordi;1.0;2016-05-31;SPOR-61;
'022022;022022;S024;jordi;1.0;2016-05-24;SPOR-63;
'022022;022022;S021;ron.peeters;0.25;2016-05-24;SPOR-65;
'022021;022021;S021;ron.peeters;0.25;2016-04-04;MUS-171;
'022021;022021;S024;jordi;0.5;2016-04-28;MUS-171;
'022021;022021;S024;jordi;0.45;2016-05-27;MUS-171;
'022021;022021;S024;jordi;0.5;2016-04-13;MUS-173;
'022021;022021;S021;ron.peeters;0.5;2016-04-06;MUS-174;
'022021;022021;S021;ron.peeters;0.25;2016-04-11;MUS-175;
'022021;022021;S021;ron.peeters;1.45;2016-04-19;MUS-175;
'022021;022021;S020;jimmy;1.5;2016-04-20;MUS-175;
'022021;022021;S020;jimmy;0.25;2016-04-22;MUS-175;
'022021;022021;S021;ron.peeters;1.0;2016-04-25;MUS-175;
'022021;022021;S020;jimmy;1.0;2016-04-26;MUS-175;
'022021;022021;S021;ron.peeters;0.5;2016-04-11;MUS-176;
'022021;022021;S024;jordi;0.25;2016-04-11;MUS-176;
'022021;022021;S024;jordi;2.0;2016-04-14;MUS-176;
'022021;022021;S020;jimmy;1.5;2016-04-20;MUS-176;
'022021;022021;S024;jordi;0.25;2016-04-20;MUS-176;
'022021;022021;S020;jimmy;1.0;2016-04-28;MUS-176;
'022021;022021;S024;jordi;1.0;2016-04-28;MUS-177;
'022021;022021;S024;jordi;4.0;2016-05-09;MUS-178;
'022021;022021;S024;jordi;2.5;2016-05-10;MUS-179;
'022020;022020;S024;jordi;2.0;2016-04-28;IM-11;
'022020;022020;S024;jordi;1.5;2016-05-03;IM-12;
'022020;022020;S021;ron.peeters;1.0;2016-05-19;IM-13;
'022020;022020;S021;ron.peeters;1.0;2016-05-30;IM-14;
'022020;022020;S021;ron.peeters;0.5;2016-05-31;IM-14;
'022020;022020;S020;jimmy;0.5;2016-05-04;IM-8;
'022020;022020;S020;jimmy;2.25;2016-05-04;IM-8;
'022020;022020;S020;jimmy;1.0;2016-05-04;IM-8;
'022020;022020;S021;ron.peeters;0.5;2016-05-04;IM-8;
'022020;022020;S020;jimmy;1.0;2016-05-06;IM-8;
'022020;022020;S020;jimmy;0.5;2016-05-06;IM-8;
'022019;022019;S024;jordi;2.0;2016-04-01;WINE-29;
'022019;022019;S007;martin.molenkamp;2.0;2016-04-15;WINE-55;
'022019;022019;S005;xander;1.0;2016-05-19;WINE-19;
'022016;022016;S023;tim;0.5;2016-04-21;BAB-186;
'022016;022016;S023;tim;0.5;2016-05-24;BAB-186;
'022016;022016;S023;tim;0.5;2016-05-31;BAB-186;
'022016;022016;S020;jimmy;1.0;2016-04-08;BAB-178;
'022016;022016;S021;ron.peeters;1.25;2016-05-02;BAB-178;
'022016;022016;S021;ron.peeters;0.5;2016-04-06;BAB-183;
'022016;022016;S021;ron.peeters;0.75;2016-05-02;BAB-183;
'022016;022016;S021;ron.peeters;0.25;2016-05-02;BAB-183;
'022016;022016;S021;ron.peeters;0.5;2016-05-11;BAB-193;
'022016;022016;S007;martin.molenkamp;1.0;2016-04-20;BAB-122;
'022016;022016;S024;jordi;0.5;2016-04-15;BAB-188;
'022016;022016;S024;jordi;0.5;2016-05-31;BAB-202;
'022016;022016;S021;ron.peeters;0.75;2016-05-31;BAB-202;
'022016;022016;S023;tim;0.5;2016-05-30;BAB-201;
'022016;022016;S023;tim;0.5;2016-05-30;BAB-201;
'022016;022016;S023;tim;2.5;2016-04-01;BAB-123;
'022016;022016;S023;tim;0.25;2016-04-01;BAB-123;
'022016;022016;S023;tim;1.5;2016-04-19;BAB-123;
'022016;022016;S023;tim;0.5;2016-04-26;BAB-123;
'022016;022016;S023;tim;0.25;2016-05-19;BAB-123;
'022016;022016;S023;tim;1.25;2016-05-06;BAB-190;
'022016;022016;S023;tim;1.5;2016-05-06;BAB-192;
'022016;022016;S023;tim;3.0;2016-05-10;BAB-192;
'022016;022016;S023;tim;0.25;2016-05-24;BAB-195;
'022016;022016;S023;tim;0.25;2016-05-24;BAB-196;
'022016;022016;S023;tim;0.25;2016-05-24;BAB-198;
'022016;022016;S023;tim;0.5;2016-05-25;BAB-199;
'022016;022016;S023;tim;5.0;2016-05-27;BAB-200;
'022016;022016;S021;ron.peeters;0.5;2016-05-18;BAB-204;
'022016;022016;S023;tim;0.5;2016-04-12;BAB-168;
'022016;022016;S007;martin.molenkamp;1.0;2016-04-20;BAB-185;
'022016;022016;S024;jordi;0.75;2016-04-25;BAB-191;
'021748;021748;S020;jimmy;4.5;2016-05-11;FOT-21;
'021748;021748;S021;ron.peeters;0.25;2016-05-04;FOT-23;
'021748;021748;S020;jimmy;1.0;2016-05-11;FOT-23;
'021748;021748;S020;jimmy;1.0;2016-05-12;FOT-25;
'021748;021748;S023;tim;0.25;2016-04-14;FOT-31;
'021748;021748;S020;jimmy;0.75;2016-05-11;FOT-31;
'021748;021748;S020;jimmy;1.5;2016-05-11;FOT-31;
'021748;021748;S023;tim;0.25;2016-04-19;FOT-22;
'021748;021748;S020;jimmy;4.0;2016-05-10;FOT-22;
'021748;021748;S020;jimmy;6.0;2016-05-12;FOT-24;
'021748;021748;S020;jimmy;1.5;2016-05-13;FOT-24;
'021748;021748;S020;jimmy;2.25;2016-05-13;FOT-24;
'021748;021748;S020;jimmy;4.0;2016-05-17;FOT-24;
'021748;021748;S020;jimmy;1.0;2016-05-17;FOT-26;
'021748;021748;S020;jimmy;3.5;2016-05-18;FOT-26;
'021748;021748;S020;jimmy;5.5;2016-05-20;FOT-27;
'021748;021748;S020;jimmy;2.5;2016-05-24;FOT-27;
'021748;021748;S020;jimmy;2.0;2016-05-18;FOT-28;
'021748;021748;S020;jimmy;1.5;2016-05-19;FOT-28;
'021748;021748;S020;jimmy;2.0;2016-05-19;FOT-28;
'021748;021748;S020;jimmy;2.75;2016-05-24;FOT-43;
'021748;021748;S020;jimmy;1.0;2016-05-24;FOT-43;
'021748;021748;S020;jimmy;6.75;2016-05-25;FOT-43;
'021748;021748;S020;jimmy;8.0;2016-05-26;FOT-43;
'021748;021748;S020;jimmy;2.25;2016-05-27;FOT-43;
'021748;021748;S020;jimmy;1.5;2016-05-27;FOT-43;
'021748;021748;S007;martin.molenkamp;2.0;2016-04-06;FOT-32;
'021748;021748;S021;ron.peeters;0.5;2016-04-11;FOT-32;
'021748;021748;S007;martin.molenkamp;1.0;2016-04-15;FOT-32;
'021748;021748;S007;martin.molenkamp;1.0;2016-04-29;FOT-32;
'021748;021748;S020;jimmy;0.5;2016-05-10;FOT-32;
'021748;021748;S020;jimmy;1.0;2016-05-10;FOT-32;
'021748;021748;S009;michiel;0.75;2016-05-11;FOT-32;
'021748;021748;S009;michiel;0.75;2016-05-12;FOT-32;
'021748;021748;S009;michiel;0.75;2016-05-13;FOT-32;
'021748;021748;S009;michiel;1.0;2016-05-17;FOT-32;
'021748;021748;S009;michiel;0.5;2016-05-18;FOT-32;
'021748;021748;S020;jimmy;4.25;2016-05-19;FOT-32;
'021748;021748;S020;jimmy;2.25;2016-05-20;FOT-32;
'021748;021748;S020;jimmy;1.5;2016-05-24;FOT-32;
'021748;021748;S020;jimmy;0.5;2016-05-27;FOT-44;
'021707;021707;S023;tim;0.25;2016-04-19;LDH-32;
'021707;021707;S023;tim;0.75;2016-04-20;LDH-32;
'021707;021707;S023;tim;0.5;2016-04-21;LDH-32;
'021707;021707;S023;tim;0.75;2016-05-10;LDH-32;
'021707;021707;S007;martin.molenkamp;1.0;2016-04-06;LDH-33;
'021707;021707;S007;martin.molenkamp;1.0;2016-04-15;LDH-33;
'021619;021619;S023;tim;0.25;2016-05-31;IN-29;
'021619;021619;S023;tim;4.0;2016-05-11;IN-23;
'021619;021619;S023;tim;0.5;2016-05-12;IN-23;
'021619;021619;S023;tim;2.0;2016-05-12;IN-23;
'021619;021619;S023;tim;1.5;2016-05-12;IN-23;
'021619;021619;S023;tim;3.0;2016-05-13;IN-23;
'021619;021619;S023;tim;1.0;2016-05-19;IN-23;
'021619;021619;S023;tim;1.0;2016-04-01;IN-36;
'021619;021619;S023;tim;0.25;2016-04-19;IN-36;
'021619;021619;S023;tim;0.75;2016-04-20;IN-36;
'021619;021619;S023;tim;0.5;2016-04-20;IN-36;
'021619;021619;S023;tim;1.0;2016-04-01;IN-37;
'021619;021619;S023;tim;1.0;2016-05-17;IN-41;
'021619;021619;S023;tim;0.5;2016-05-17;IN-41;
'021619;021619;S023;tim;0.5;2016-05-17;IN-41;
'021619;021619;S023;tim;0.5;2016-05-24;IN-44;
'021619;021619;S023;tim;0.5;2016-05-30;IN-44;
'021619;021619;S023;tim;0.5;2016-05-19;IN-42;
'021619;021619;S023;tim;2.0;2016-05-19;IN-42;
'021619;021619;S023;tim;0.5;2016-05-19;IN-42;
'021619;021619;S023;tim;0.5;2016-05-24;IN-43;
'021619;021619;S023;tim;1.25;2016-05-27;IN-43;
'021619;021619;S023;tim;4.5;2016-05-30;IN-43;
'021619;021619;S023;tim;1.5;2016-05-24;IN-46;
'021619;021619;S023;tim;0.5;2016-05-30;IN-46;
'021617;About Art;S005;xander;2.5;2016-04-08;AM-10;
'021617;About Art;S005;xander;2.5;2016-04-28;AM-10;
'021617;About Art;S005;xander;5.5;2016-04-12;AM-12;
'021617;About Art;S005;xander;2.0;2016-04-13;AM-12;
'021617;About Art;S005;xander;3.0;2016-04-21;AM-12;
'021617;About Art;S005;xander;1.5;2016-05-11;AM-12;
'021617;About Art;S005;xander;4.0;2016-04-26;AM-13;
'021617;About Art;S005;xander;2.0;2016-04-28;AM-13;
'021617;About Art;S021;ron.peeters;2.0;2016-04-05;AM-25;
'021617;About Art;S020;jimmy;1.5;2016-04-06;AM-25;
'021617;About Art;S020;jimmy;2.0;2016-04-06;AM-25;
'021617;About Art;S020;jimmy;1.5;2016-04-07;AM-25;
'021617;About Art;S020;jimmy;2.25;2016-04-08;AM-25;
'021617;About Art;S005;xander;0.5;2016-04-05;AM-52;
'021617;About Art;S007;martin.molenkamp;1.5;2016-04-04;AM-40;
'021617;About Art;S007;martin.molenkamp;1.0;2016-04-05;AM-40;
'021617;About Art;S007;martin.molenkamp;2.0;2016-04-22;AM-40;
'021617;About Art;S005;xander;0.5;2016-04-22;AM-40;
'021617;About Art;S007;martin.molenkamp;1.0;2016-04-26;AM-40;
'021617;About Art;S005;xander;0.25;2016-04-19;AM-41;
'021617;About Art;S005;xander;0.75;2016-05-17;AM-41;
'021617;About Art;S021;ron.peeters;1.5;2016-04-13;AM-57;
'021617;About Art;S021;ron.peeters;0.5;2016-04-13;AM-57;
'021617;About Art;S021;ron.peeters;1.0;2016-04-18;AM-57;
'021617;About Art;S021;ron.peeters;0.75;2016-04-18;AM-57;
'021617;About Art;S021;ron.peeters;1.0;2016-04-18;AM-57;
'021617;About Art;S005;xander;4.5;2016-05-30;AM-66;
'021499;021499;S024;jordi;2.0;2016-04-19;PIT-275;
'021499;021499;S024;jordi;3.0;2016-04-20;PIT-275;
'021499;021499;S020;jimmy;1.5;2016-04-29;PIT-276;
'021499;021499;S024;jordi;1.0;2016-04-29;PIT-277;
'021499;021499;S024;jordi;1.0;2016-04-29;PIT-278;
'021499;021499;S020;jimmy;0.5;2016-04-29;PIT-279;
'021499;021499;S020;jimmy;1.0;2016-04-29;PIT-280;
'021499;021499;S024;jordi;0.25;2016-04-29;PIT-280;
'021499;021499;S021;ron.peeters;1.0;2016-05-09;PIT-281;
'021499;021499;SU004;alexanderwttewaall;2.75;2016-05-20;PIT-283;
'021499;021499;S024;jordi;0.25;2016-05-20;PIT-283;
'021499;021499;S024;jordi;0.75;2016-05-27;PIT-284;
'021499;021499;SU004;alexanderwttewaall;5.0;2016-05-27;PIT-284;
'021499;021499;SU004;alexanderwttewaall;8.0;2016-05-30;PIT-286;
'021499;021499;SU004;alexanderwttewaall;8.0;2016-05-31;PIT-286;
'021499;021499;S024;jordi;0.5;2016-05-26;PIT-287;
'021499;021499;S020;jimmy;1.0;2016-04-07;PIT-272;
'021499;021499;S005;xander;1.5;2016-04-13;PIT-272;
'021499;021499;S005;xander;0.25;2016-04-19;PIT-272;
'021499;021499;S024;jordi;2.0;2016-04-29;PIT-272;
'021499;021499;S024;jordi;7.0;2016-05-11;PIT-272;
'021499;021499;S005;xander;0.75;2016-05-11;PIT-272;
'021499;021499;S024;jordi;0.75;2016-05-12;PIT-272;
'021499;021499;S024;jordi;1.5;2016-05-18;PIT-272;
'021499;021499;S024;jordi;0.25;2016-04-13;PIT-273;
'021499;021499;S024;jordi;0.5;2016-04-13;PIT-273;
'021499;021499;S021;ron.peeters;2.0;2016-04-14;PIT-273;
'021499;021499;S024;jordi;0.5;2016-04-14;PIT-273;
'021499;021499;S024;jordi;0.75;2016-04-19;PIT-273;
'021499;021499;S005;xander;4.0;2016-05-20;PIT-274;
'021499;021499;S005;xander;1.5;2016-05-24;PIT-274;
'021499;021499;S005;xander;1.5;2016-05-25;PIT-274;
'021499;021499;S024;jordi;1.0;2016-05-11;PIT-282;
'021498;021498;S024;jordi;0.25;2016-05-27;SMT-122;
'021498;021498;S020;jimmy;1.0;2016-04-05;SMT-131;
'021282;021282;S021;ron.peeters;0.5;2016-05-11;SAN-5;
'021282;021282;S021;ron.peeters;0.5;2016-05-12;SAN-5;
'021282;021282;S021;ron.peeters;1.0;2016-05-19;SAN-5;
'020987;020987;S017;johan.kragt;2.5;2016-05-23;PAVO-285;
'020987;020987;S017;johan.kragt;2.0;2016-04-12;PAVO-315;
'020987;020987;S017;johan.kragt;1.0;2016-04-13;PAVO-315;
'020987;020987;S017;johan.kragt;1.0;2016-04-12;PAVO-322;
'020987;020987;S017;johan.kragt;1.5;2016-04-12;PAVO-324;
'020987;020987;S017;johan.kragt;1.0;2016-05-02;PAVO-326;
'020987;020987;S017;johan.kragt;1.0;2016-05-18;PAVO-329;
'020945;020945;S024;jordi;0.5;2016-04-15;OD-108;
'020945;020945;S021;ron.peeters;3.0;2016-04-20;OD-109;
'020945;020945;S021;ron.peeters;1.0;2016-04-26;OD-111;
'020945;020945;S024;jordi;1.0;2016-05-04;OD-120;
'020945;020945;S020;jimmy;1.75;2016-05-06;OD-120;
'020945;020945;S020;jimmy;0.75;2016-05-10;OD-120;
'020945;020945;S021;ron.peeters;0.5;2016-05-09;OD-122;
'020945;020945;S020;jimmy;3.0;2016-05-13;OD-133;
'020945;020945;S020;jimmy;2.5;2016-05-13;OD-133;
'020945;020945;S020;jimmy;1.25;2016-05-17;OD-133;
'020945;020945;S024;jordi;3.0;2016-05-17;OD-134;
'020945;020945;S021;ron.peeters;1.25;2016-05-17;OD-134;
'020945;020945;S021;ron.peeters;1.0;2016-05-23;OD-143;
'020945;020945;S021;ron.peeters;0.25;2016-05-25;OD-143;
'020945;020945;S021;ron.peeters;0.41666666;2016-05-23;OD-144;
'020945;020945;S021;ron.peeters;0.5;2016-05-25;OD-144;
'020945;020945;S021;ron.peeters;0.5833333;2016-05-26;OD-144;
'020945;020945;S020;jimmy;2.0;2016-05-27;OD-145;
'020945;020945;S011;maarten.jongerius;0.5;2016-05-27;OD-145;
'020945;020945;S021;ron.peeters;1.0;2016-05-18;OD-149;
'020945;020945;S005;xander;2.0;2016-04-15;OD-86;
'020945;020945;S024;jordi;0.5;2016-04-25;OD-86;
'020945;020945;S005;xander;3.5;2016-04-28;OD-86;
'020945;020945;S005;xander;0.75;2016-05-04;OD-86;
'020945;020945;S005;xander;0.5;2016-05-09;OD-86;
'020945;020945;S024;jordi;0.25;2016-05-13;OD-86;
'020945;020945;S021;ron.peeters;0.41666666;2016-04-04;OD-96;
'020945;020945;S021;ron.peeters;0.33333334;2016-04-04;OD-96;
'020945;020945;S021;ron.peeters;0.25;2016-04-05;OD-98;
'020945;020945;S024;jordi;0.5;2016-04-12;OD-98;
'020945;020945;S005;xander;0.5;2016-04-22;OD-100;
'020945;020945;S005;xander;1.25;2016-04-28;OD-100;
'020945;020945;S005;xander;2.0;2016-04-29;OD-100;
'020945;020945;S011;maarten.jongerius;2.5;2016-04-19;OD-102;
'020945;020945;S021;ron.peeters;0.75;2016-04-21;OD-103;
'020945;020945;S021;ron.peeters;2.25;2016-04-21;OD-103;
'020945;020945;S011;maarten.jongerius;1.0;2016-04-21;OD-103;
'020945;020945;S011;maarten.jongerius;1.0;2016-04-22;OD-103;
'020945;020945;S023;tim;1.0;2016-04-20;OD-104;
'020945;020945;S021;ron.peeters;0.5;2016-04-21;OD-104;
'020945;020945;S023;tim;3.0;2016-04-21;OD-104;
'020945;020945;S023;tim;0.25;2016-04-21;OD-104;
'020945;020945;S023;tim;0.75;2016-04-22;OD-104;
'020945;020945;S011;maarten.jongerius;1.75;2016-04-19;OD-105;
'020945;020945;S011;maarten.jongerius;1.0;2016-04-20;OD-105;
'020945;020945;S023;tim;1.75;2016-04-22;OD-106;
'020945;020945;S021;ron.peeters;1.5;2016-05-31;OD-107;
'020945;020945;S021;ron.peeters;2.25;2016-05-24;OD-110;
'020945;020945;S021;ron.peeters;0.25;2016-05-25;OD-110;
'020945;020945;S021;ron.peeters;0.25;2016-05-25;OD-110;
'020945;020945;S021;ron.peeters;0.25;2016-05-25;OD-110;
'020945;020945;S021;ron.peeters;0.25;2016-05-25;OD-110;
'020945;020945;S021;ron.peeters;1.0;2016-05-30;OD-110;
'020945;020945;S024;jordi;0.25;2016-05-30;OD-112;
'020945;020945;S011;maarten.jongerius;0.75;2016-05-19;OD-116;
'020945;020945;S011;maarten.jongerius;1.25;2016-05-20;OD-116;
'020945;020945;S024;jordi;0.75;2016-05-04;OD-118;
'020945;020945;S021;ron.peeters;0.41666666;2016-05-09;OD-119;
'020945;020945;S021;ron.peeters;0.5;2016-05-09;OD-121;
'020945;020945;S021;ron.peeters;0.25;2016-05-10;OD-121;
'020945;020945;S021;ron.peeters;2.0;2016-05-10;OD-123;
'020945;020945;S023;tim;1.0;2016-05-10;OD-123;
'020945;020945;S021;ron.peeters;2.0;2016-05-11;OD-123;
'020945;020945;S023;tim;1.0;2016-05-11;OD-123;
'020945;020945;S023;tim;1.5;2016-05-12;OD-123;
'020945;020945;S023;tim;0.25;2016-05-17;OD-123;
'020945;020945;S021;ron.peeters;1.0;2016-05-19;OD-123;
'020945;020945;S021;ron.peeters;1.5;2016-05-25;OD-123;
'020945;020945;S021;ron.peeters;0.75;2016-05-10;OD-126;
'020945;020945;S021;ron.peeters;0.75;2016-05-10;OD-126;
'020945;020945;S011;maarten.jongerius;1.5;2016-05-19;OD-132;
'020945;020945;S011;maarten.jongerius;0.5;2016-05-19;OD-132;
'020945;020945;S005;xander;2.0;2016-05-06;OD-75;
'020945;020945;SU004;alexanderwttewaall;8.0;2016-05-06;OD-75;
'020945;020945;SU004;alexanderwttewaall;8.0;2016-05-09;OD-75;
'020945;020945;S023;tim;4.0;2016-05-09;OD-75;
'020945;020945;S021;ron.peeters;1.0;2016-05-10;OD-75;
'020945;020945;S005;xander;4.0;2016-05-10;OD-75;
'020945;020945;S023;tim;3.0;2016-05-10;OD-75;
'020945;020945;S021;ron.peeters;0.5;2016-05-11;OD-75;
'020945;020945;S021;ron.peeters;1.0;2016-05-12;OD-75;
'020945;020945;S023;tim;1.5;2016-04-07;OD-77;
'020945;020945;S023;tim;4.0;2016-04-07;OD-77;
'020945;020945;S023;tim;0.25;2016-04-14;OD-77;
'020945;020945;S023;tim;0.5;2016-04-19;OD-77;
'020945;020945;S023;tim;0.25;2016-04-20;OD-77;
'020945;020945;S011;maarten.jongerius;1.25;2016-04-20;OD-77;
'020945;020945;S023;tim;2.0;2016-04-20;OD-77;
'020945;020945;S011;maarten.jongerius;3.0;2016-04-21;OD-77;
'020945;020945;S023;tim;0.25;2016-04-21;OD-77;
'020945;020945;S023;tim;2.0;2016-04-28;OD-77;
'020945;020945;S021;ron.peeters;1.5;2016-05-17;OD-77;
'020945;020945;S023;tim;0.5;2016-04-19;OD-79;
'020945;020945;S023;tim;0.5;2016-04-20;OD-79;
'020945;020945;S020;jimmy;1.0;2016-04-21;OD-79;
'020945;020945;S020;jimmy;3.0;2016-04-22;OD-79;
'020945;020945;S020;jimmy;1.0;2016-04-26;OD-79;
'020945;020945;S023;tim;0.5;2016-04-26;OD-79;
'020945;020945;S011;maarten.jongerius;2.5;2016-04-22;OD-80;
'020945;020945;S011;maarten.jongerius;2.5;2016-04-26;OD-80;
'020945;020945;S011;maarten.jongerius;7.25;2016-04-28;OD-80;
'020945;020945;S020;jimmy;2.5;2016-04-29;OD-80;
'020945;020945;S005;xander;1.0;2016-04-08;OD-82;
'020945;020945;S011;maarten.jongerius;5.25;2016-04-13;OD-82;
'020945;020945;S011;maarten.jongerius;1.5;2016-04-26;OD-82;
'020945;020945;S011;maarten.jongerius;6.25;2016-04-12;OD-83;
'020945;020945;S011;maarten.jongerius;3.0;2016-04-13;OD-83;
'020945;020945;S011;maarten.jongerius;4.75;2016-04-14;OD-83;
'020945;020945;S005;xander;1.0;2016-04-14;OD-83;
'020945;020945;S011;maarten.jongerius;2.75;2016-04-15;OD-83;
'020945;020945;S011;maarten.jongerius;2.0;2016-04-19;OD-83;
'020945;020945;S023;tim;0.5;2016-04-07;OD-84;
'020945;020945;S023;tim;0.75;2016-04-18;OD-84;
'020945;020945;S023;tim;0.5;2016-04-19;OD-84;
'020945;020945;S007;martin.molenkamp;2.0;2016-04-01;OD-85;
'020945;020945;S007;martin.molenkamp;0.5;2016-04-07;OD-85;
'020945;020945;S023;tim;0.25;2016-04-12;OD-85;
'020945;020945;S007;martin.molenkamp;2.0;2016-04-15;OD-85;
'020945;020945;S023;tim;2.0;2016-04-15;OD-85;
'020945;020945;S011;maarten.jongerius;2.5;2016-04-15;OD-85;
'020945;020945;S011;maarten.jongerius;1.0;2016-04-22;OD-85;
'020945;020945;S007;martin.molenkamp;1.0;2016-04-25;OD-85;
'020945;020945;S007;martin.molenkamp;1.0;2016-04-28;OD-85;
'020945;020945;S007;martin.molenkamp;1.0;2016-04-28;OD-85;
'020945;020945;S011;maarten.jongerius;0.5;2016-04-28;OD-85;
'020945;020945;S023;tim;0.5;2016-05-24;OD-85;
'020945;020945;S011;maarten.jongerius;3.5;2016-04-15;OD-90;
'020945;020945;S023;tim;4.0;2016-04-05;OD-92;
'020945;020945;S023;tim;4.0;2016-04-06;OD-92;
'020945;020945;S023;tim;0.25;2016-04-07;OD-92;
'020945;020945;S023;tim;0.5;2016-04-06;OD-93;
'020945;020945;S009;michiel;0.75;2016-04-08;OD-93;
'020945;020945;S005;xander;1.0;2016-04-20;OD-94;
'020945;020945;S011;maarten.jongerius;3.0;2016-04-20;OD-94;
'020945;020945;S011;maarten.jongerius;3.0;2016-04-21;OD-94;
'020945;020945;S011;maarten.jongerius;2.5;2016-04-22;OD-94;
'020945;020945;S021;ron.peeters;0.25;2016-04-05;OD-99;
'020945;020945;S024;jordi;0.5;2016-05-18;OD-128;
'020945;020945;S021;ron.peeters;0.75;2016-05-23;OD-128;
'020945;020945;S021;ron.peeters;1.0;2016-05-23;OD-128;
'020945;020945;S021;ron.peeters;1.0;2016-05-23;OD-130;
'020945;020945;S021;ron.peeters;0.5;2016-05-24;OD-131;
'020945;020945;S023;tim;0.5;2016-05-24;OD-131;
'020945;020945;S021;ron.peeters;0.25;2016-05-25;OD-131;
'020945;020945;S021;ron.peeters;2.0;2016-05-23;OD-135;
'020945;020945;S002;gijs.epping;2.0;2016-05-25;OD-135;
'020945;020945;S005;xander;0.5;2016-04-22;OD-76;
'020945;020945;SU004;alexanderwttewaall;8.0;2016-05-10;OD-76;
'020945;020945;S005;xander;4.0;2016-05-10;OD-76;
'020945;020945;SU004;alexanderwttewaall;8.0;2016-05-11;OD-76;
'020945;020945;SU004;alexanderwttewaall;8.0;2016-05-12;OD-76;
'020945;020945;S023;tim;0.25;2016-05-17;OD-76;
'020945;020945;S023;tim;2.5;2016-05-19;OD-76;
'020945;020945;S011;maarten.jongerius;0.5;2016-05-20;OD-76;
'020885;020885;S021;ron.peeters;0.75;2016-04-13;RED-117;
'020885;020885;S005;xander;1.25;2016-04-06;RED-120;
'020885;020885;S007;martin.molenkamp;4.0;2016-04-14;RED-120;
'020885;020885;S007;martin.molenkamp;1.0;2016-04-22;RED-120;
'020885;020885;S011;maarten.jongerius;0.25;2016-05-24;RED-120;
'020885;020885;S005;xander;0.5;2016-05-25;RED-120;
'020885;020885;S005;xander;0.75;2016-05-26;RED-120;
'020885;020885;S024;jordi;0.5;2016-05-26;RED-120;
'020885;020885;S007;martin.molenkamp;2.0;2016-04-06;RED-132;
'020885;020885;S011;maarten.jongerius;3.0;2016-04-14;RED-132;
'020885;020885;S005;xander;3.0;2016-04-14;RED-132;
'020885;020885;S005;xander;0.5;2016-04-22;RED-132;
'020885;020885;S007;martin.molenkamp;4.0;2016-04-25;RED-132;
'020885;020885;S005;xander;0.75;2016-04-26;RED-132;
'020885;020885;S011;maarten.jongerius;0.5;2016-04-26;RED-132;
'020885;020885;S005;xander;0.5;2016-05-03;RED-132;
'020885;020885;S011;maarten.jongerius;1.0;2016-05-03;RED-132;
'020885;020885;S011;maarten.jongerius;1.0;2016-05-17;RED-132;
'020885;020885;S011;maarten.jongerius;2.0;2016-05-18;RED-132;
'020885;020885;S011;maarten.jongerius;0.25;2016-05-19;RED-132;
'020885;020885;S009;michiel;0.5;2016-05-27;RED-132;
'020885;020885;S009;michiel;0.25;2016-05-31;RED-132;
'020885;020885;S021;ron.peeters;0.5;2016-05-04;RED-199;
'020885;020885;S009;michiel;4.0;2016-04-22;RED-101;
'020885;020885;S009;michiel;0.25;2016-05-26;RED-101;
'020885;020885;S009;michiel;0.25;2016-05-27;RED-101;
'020885;020885;S023;tim;0.5;2016-04-15;RED-103;
'020885;020885;S023;tim;3.5;2016-04-21;RED-103;
'020885;020885;S023;tim;3.5;2016-04-22;RED-103;
'020885;020885;S023;tim;4.5;2016-04-26;RED-103;
'020885;020885;S009;michiel;4.0;2016-04-28;RED-103;
'020885;020885;S023;tim;1.0;2016-04-28;RED-103;
'020885;020885;S023;tim;0.75;2016-05-12;RED-103;
'020885;020885;S021;ron.peeters;1.0;2016-05-12;RED-103;
'020885;020885;S002;gijs.epping;9.25;2016-05-25;RED-103;
'020885;020885;S009;michiel;4.0;2016-04-21;RED-104;
'020885;020885;S023;tim;0.25;2016-04-07;RED-105;
'020885;020885;S009;michiel;1.0;2016-04-21;RED-105;
'020885;020885;S009;michiel;3.0;2016-04-21;RED-105;
'020885;020885;S009;michiel;1.5;2016-05-03;RED-105;
'020885;020885;S009;michiel;0.5;2016-05-04;RED-105;
'020885;020885;S009;michiel;5.0;2016-05-06;RED-105;
'020885;020885;S021;ron.peeters;1.25;2016-05-12;RED-105;
'020885;020885;S021;ron.peeters;0.5;2016-05-26;RED-105;
'020885;020885;S009;michiel;2.0;2016-04-20;RED-106;
'020885;020885;S021;ron.peeters;0.5;2016-04-07;RED-107;
'020885;020885;S021;ron.peeters;0.5;2016-04-07;RED-108;
'020885;020885;S021;ron.peeters;1.0;2016-04-07;RED-108;
'020885;020885;S009;michiel;0.25;2016-04-11;RED-108;
'020885;020885;S021;ron.peeters;1.0;2016-04-21;RED-108;
'020885;020885;S009;michiel;2.0;2016-05-04;RED-108;
'020885;020885;S011;maarten.jongerius;3.0;2016-05-06;RED-108;
'020885;020885;S021;ron.peeters;0.5;2016-05-12;RED-108;
'020885;020885;S005;xander;2.0;2016-05-12;RED-108;
'020885;020885;S021;ron.peeters;0.5;2016-04-07;RED-109;
'020885;020885;S021;ron.peeters;0.5;2016-04-07;RED-109;
'020885;020885;S009;michiel;0.25;2016-04-11;RED-109;
'020885;020885;S021;ron.peeters;1.0;2016-05-03;RED-109;
'020885;020885;S021;ron.peeters;0.5;2016-05-03;RED-109;
'020885;020885;S021;ron.peeters;0.5;2016-05-04;RED-109;
'020885;020885;S011;maarten.jongerius;1.0;2016-05-05;RED-109;
'020885;020885;S009;michiel;7.0;2016-04-08;RED-110;
'020885;020885;S009;michiel;5.0;2016-04-11;RED-110;
'020885;020885;S009;michiel;5.25;2016-04-12;RED-110;
'020885;020885;S009;michiel;2.75;2016-04-13;RED-110;
'020885;020885;S009;michiel;4.75;2016-04-14;RED-110;
'020885;020885;S009;michiel;4.0;2016-04-22;RED-110;
'020885;020885;S023;tim;7.5;2016-05-03;RED-110;
'020885;020885;S023;tim;2.5;2016-05-04;RED-110;
'020885;020885;S009;michiel;4.75;2016-05-06;RED-110;
'020885;020885;S023;tim;1.0;2016-05-06;RED-110;
'020885;020885;S009;michiel;4.75;2016-05-10;RED-110;
'020885;020885;S009;michiel;4.0;2016-05-11;RED-110;
'020885;020885;S023;tim;2.0;2016-05-11;RED-110;
'020885;020885;S021;ron.peeters;2.0;2016-05-12;RED-110;
'020885;020885;S023;tim;0.25;2016-04-07;RED-112;
'020885;020885;S023;tim;0.25;2016-04-08;RED-112;
'020885;020885;S009;michiel;2.0;2016-04-25;RED-112;
'020885;020885;S005;xander;2.0;2016-05-06;RED-112;
'020885;020885;S009;michiel;0.25;2016-05-18;RED-112;
'020885;020885;S005;xander;0.25;2016-05-09;RED-115;
'020885;020885;S005;xander;2.75;2016-05-10;RED-115;
'020885;020885;S021;ron.peeters;0.75;2016-04-06;RED-130;
'020885;020885;S005;xander;2.0;2016-04-14;RED-133;
'020885;020885;S005;xander;6.0;2016-04-15;RED-133;
'020885;020885;S005;xander;2.0;2016-04-19;RED-133;
'020885;020885;S005;xander;4.75;2016-04-20;RED-133;
'020885;020885;S005;xander;3.5;2016-04-21;RED-133;
'020885;020885;S005;xander;2.25;2016-04-22;RED-133;
'020885;020885;S005;xander;3.5;2016-04-22;RED-133;
'020885;020885;S005;xander;2.0;2016-05-06;RED-135;
'020885;020885;S011;maarten.jongerius;5.0;2016-05-04;RED-136;
'020885;020885;S021;ron.peeters;1.5;2016-05-03;RED-137;
'020885;020885;S005;xander;2.0;2016-05-09;RED-137;
'020885;020885;S011;maarten.jongerius;1.0;2016-05-06;RED-138;
'020885;020885;S002;gijs.epping;2.0;2016-05-25;RED-138;
'020885;020885;S021;ron.peeters;1.0;2016-05-03;RED-139;
'020885;020885;S002;gijs.epping;2.25;2016-05-25;RED-139;
'020885;020885;S011;maarten.jongerius;4.25;2016-05-03;RED-143;
'020885;020885;S011;maarten.jongerius;1.25;2016-05-04;RED-143;
'020885;020885;S011;maarten.jongerius;1.5;2016-04-26;RED-145;
'020885;020885;S005;xander;4.0;2016-05-03;RED-145;
'020885;020885;S002;gijs.epping;2.5;2016-05-25;RED-145;
'020885;020885;S011;maarten.jongerius;1.5;2016-05-04;RED-146;
'020885;020885;S011;maarten.jongerius;2.0;2016-05-05;RED-146;
'020885;020885;S011;maarten.jongerius;2.0;2016-05-06;RED-146;
'020885;020885;S002;gijs.epping;2.5;2016-05-25;RED-146;
'020885;020885;S005;xander;3.75;2016-05-03;RED-147;
'020885;020885;S005;xander;3.25;2016-05-04;RED-147;
'020885;020885;S005;xander;6.0;2016-05-09;RED-147;
'020885;020885;S005;xander;5.0;2016-05-12;RED-148;
'020885;020885;S032;arjan.van.emmerik;8.0;2016-05-10;RED-150;
'020885;020885;S032;arjan.van.emmerik;8.0;2016-05-11;RED-150;
'020885;020885;S032;arjan.van.emmerik;4.0;2016-05-12;RED-150;
'020885;020885;S032;arjan.van.emmerik;8.0;2016-05-16;RED-150;
'020885;020885;S011;maarten.jongerius;0.5;2016-05-17;RED-150;
'020885;020885;S032;arjan.van.emmerik;4.0;2016-05-17;RED-150;
'020885;020885;S032;arjan.van.emmerik;2.0;2016-05-18;RED-150;
'020885;020885;S011;maarten.jongerius;0.5;2016-05-18;RED-150;
'020885;020885;S032;arjan.van.emmerik;4.0;2016-05-19;RED-150;
'020885;020885;S032;arjan.van.emmerik;4.0;2016-05-12;RED-152;
'020885;020885;S032;arjan.van.emmerik;4.0;2016-05-17;RED-152;
'020885;020885;S032;arjan.van.emmerik;6.0;2016-05-18;RED-152;
'020885;020885;S032;arjan.van.emmerik;4.0;2016-05-19;RED-152;
'020885;020885;S023;tim;0.5;2016-05-12;RED-157;
'020885;020885;S021;ron.peeters;0.25;2016-05-12;RED-157;
'020885;020885;S011;maarten.jongerius;1.5;2016-05-18;RED-167;
'020885;020885;S009;michiel;4.0;2016-05-03;RED-149;
'020885;020885;S005;xander;1.0;2016-05-12;RED-153;
'020885;020885;S005;xander;0.5;2016-05-12;RED-153;
'020885;020885;S011;maarten.jongerius;0.5;2016-05-18;RED-170;
'020885;020885;S021;ron.peeters;0.75;2016-05-24;RED-9;
'020641;020641;S005;xander;4.0;2016-04-01;MPZ-248;
'020641;020641;S005;xander;2.5;2016-04-06;MPZ-255;
'020641;020641;S005;xander;1.75;2016-04-01;MPZ-261;
'020641;020641;S005;xander;2.5;2016-04-01;MPZ-262;
'020641;020641;S005;xander;3.0;2016-04-29;MPZ-262;
'020641;020641;S005;xander;4.0;2016-04-07;MPZ-268;
'020641;020641;S005;xander;2.75;2016-04-04;MPZ-269;
'020641;020641;S005;xander;4.0;2016-04-05;MPZ-269;
'020641;020641;S005;xander;3.0;2016-04-06;MPZ-269;
'020641;020641;S005;xander;3.75;2016-04-07;MPZ-269;
'020641;020641;S024;jordi;3.0;2016-04-13;MPZ-282;
'020641;020641;S020;jimmy;1.5;2016-04-19;MPZ-282;
'020641;020641;S020;jimmy;1.5;2016-04-20;MPZ-282;
'020641;020641;S020;jimmy;2.0;2016-04-20;MPZ-282;
'020641;020641;S020;jimmy;1.0;2016-04-21;MPZ-282;
'020641;020641;S020;jimmy;1.5;2016-04-22;MPZ-282;
'020641;020641;S024;jordi;0.5;2016-04-22;MPZ-283;
'020641;020641;S024;jordi;0.5;2016-04-20;MPZ-284;
'020641;020641;S024;jordi;0.25;2016-04-21;MPZ-285;
'020641;020641;S023;tim;2.0;2016-05-10;MPZ-326;
'020641;020641;S024;jordi;2.5;2016-05-25;MPZ-350;
'020641;020641;S007;martin.molenkamp;5.0;2016-04-07;NAK-2;
'020641;020641;S007;martin.molenkamp;2.0;2016-04-11;NAK-2;
'020641;020641;S005;xander;0.5;2016-04-04;MPZ-249;
'020641;020641;S028;jos;6.25;2016-04-04;MPZ-249;
'020641;020641;S028;jos;5.5;2016-04-05;MPZ-249;
'020641;020641;S005;xander;0.75;2016-04-06;MPZ-249;
'020641;020641;S028;jos;4.5;2016-04-12;MPZ-249;
'020641;020641;S028;jos;7.25;2016-04-07;MPZ-250;
'020641;020641;S028;jos;0.5;2016-04-11;MPZ-250;
'020641;020641;S005;xander;0.5;2016-04-12;MPZ-250;
'020641;020641;S011;maarten.jongerius;0.5;2016-04-19;MPZ-250;
'020641;020641;S011;maarten.jongerius;1.0;2016-04-20;MPZ-250;
'020641;020641;S028;jos;1.5;2016-04-21;MPZ-250;
'020641;020641;S028;jos;5.0;2016-04-06;MPZ-251;
'020641;020641;S028;jos;1.5;2016-04-21;MPZ-251;
'020641;020641;S028;jos;1.5;2016-04-12;MPZ-252;
'020641;020641;S028;jos;6.0;2016-04-13;MPZ-252;
'020641;020641;S028;jos;4.0;2016-04-18;MPZ-252;
'020641;020641;S028;jos;2.25;2016-04-20;MPZ-252;
'020641;020641;S028;jos;1.5;2016-04-06;MPZ-253;
'020641;020641;S028;jos;5.75;2016-04-14;MPZ-258;
'020641;020641;S028;jos;3.0;2016-04-20;MPZ-258;
'020641;020641;S028;jos;3.0;2016-05-12;MPZ-258;
'020641;020641;S028;jos;3.75;2016-05-12;MPZ-259;
'020641;020641;S024;jordi;1.0;2016-04-25;MPZ-260;
'020641;020641;S024;jordi;0.25;2016-04-29;MPZ-260;
'020641;020641;S020;jimmy;0.5;2016-04-08;MPZ-279;
'020641;020641;S024;jordi;1.0;2016-04-11;MPZ-279;
'020641;020641;S028;jos;0.5;2016-04-13;MPZ-279;
'020641;020641;S028;jos;1.0;2016-04-14;MPZ-279;
'020641;020641;S028;jos;1.0;2016-04-18;MPZ-279;
'020641;020641;S028;jos;7.25;2016-04-19;MPZ-287;
'020641;020641;S028;jos;3.25;2016-05-04;MPZ-291;
'020641;020641;S028;jos;1.25;2016-04-25;MPZ-292;
'020641;020641;S028;jos;2.0;2016-04-26;MPZ-292;
'020641;020641;S028;jos;3.75;2016-04-29;MPZ-292;
'020641;020641;S028;jos;5.25;2016-05-03;MPZ-292;
'020641;020641;S028;jos;2.0;2016-05-04;MPZ-292;
'020641;020641;S028;jos;4.5;2016-04-25;MPZ-293;
'020641;020641;S028;jos;0.25;2016-04-26;MPZ-293;
'020641;020641;S028;jos;3.25;2016-05-09;MPZ-294;
'020641;020641;S028;jos;1.75;2016-05-10;MPZ-294;
'020641;020641;S028;jos;0.5;2016-05-23;MPZ-294;
'020641;020641;S028;jos;1.25;2016-05-11;MPZ-295;
'020641;020641;S028;jos;0.25;2016-05-23;MPZ-295;
'020641;020641;S028;jos;5.0;2016-05-11;MPZ-297;
'020641;020641;S028;jos;3.0;2016-05-10;MPZ-299;
'020641;020641;S028;jos;2.0;2016-04-21;MPZ-300;
'020641;020641;S028;jos;0.25;2016-04-26;MPZ-300;
'020641;020641;S028;jos;1.0;2016-05-04;MPZ-300;
'020641;020641;S028;jos;2.0;2016-04-21;MPZ-302;
'020641;020641;S028;jos;4.5;2016-05-09;MPZ-310;
'020641;020641;S005;xander;2.75;2016-04-29;MPZ-311;
'020641;020641;S028;jos;3.0;2016-04-29;MPZ-311;
'020641;020641;S007;martin.molenkamp;4.0;2016-04-29;MPZ-311;
'020641;020641;S002;gijs.epping;2.0;2016-05-18;MPZ-311;
'020641;020641;S028;jos;5.75;2016-05-17;MPZ-296;
'020641;020641;S028;jos;0.5;2016-05-18;MPZ-296;
'020641;020641;S011;maarten.jongerius;1.0;2016-05-18;MPZ-296;
'020641;020641;S028;jos;1.0;2016-05-17;MPZ-301;
'020641;020641;S028;jos;0.5;2016-05-18;MPZ-301;
'020641;020641;S028;jos;2.0;2016-05-19;MPZ-305;
'020641;020641;S011;maarten.jongerius;1.0;2016-05-18;MPZ-306;
'020641;020641;S028;jos;2.0;2016-05-19;MPZ-306;
'020641;020641;S028;jos;1.75;2016-05-19;MPZ-307;
'020641;020641;S028;jos;5.0;2016-05-18;MPZ-329;
'020641;020641;S011;maarten.jongerius;0.75;2016-05-19;MPZ-329;
'020641;020641;S028;jos;2.0;2016-05-19;MPZ-329;
'020641;020641;S028;jos;2.0;2016-05-23;MPZ-309;
'020641;020641;S028;jos;4.0;2016-05-25;MPZ-340;
'020641;020641;S028;jos;1.5;2016-05-23;MPZ-341;
'020641;020641;S011;maarten.jongerius;0.25;2016-05-31;MPZ-341;
'020641;020641;S028;jos;1.5;2016-05-23;MPZ-342;
'020641;020641;S028;jos;1.5;2016-05-23;MPZ-343;
'020641;020641;S028;jos;0.25;2016-05-26;MPZ-343;
'020641;020641;S028;jos;1.0;2016-05-25;MPZ-344;
'020641;020641;S028;jos;4.25;2016-05-24;MPZ-345;
'020641;020641;S011;maarten.jongerius;0.25;2016-05-31;MPZ-345;
'020641;020641;S028;jos;1.5;2016-05-25;MPZ-347;
'020641;020641;S028;jos;0.5;2016-05-25;MPZ-348;
'020641;020641;S028;jos;0.25;2016-05-26;MPZ-348;
'020641;020641;S028;jos;1.5;2016-05-24;MPZ-349;
'020641;020641;S028;jos;3.0;2016-04-26;MPZ-241;
'020641;020641;S028;jos;6.25;2016-05-02;MPZ-241;
'020641;020641;S002;gijs.epping;4.0;2016-05-12;MPZ-241;
'020641;020641;S020;jimmy;0.5;2016-04-06;MPZ-271;
'020641;020641;S028;jos;3.0;2016-04-11;MPZ-271;
'020641;020641;S028;jos;0.5;2016-04-12;MPZ-271;
'020641;020641;S005;xander;1.0;2016-04-12;MPZ-240;
'020641;020641;S005;xander;0.75;2016-04-13;MPZ-240;
'020641;020641;S028;jos;2.5;2016-04-18;MPZ-240;
'020641;020641;S005;xander;0.75;2016-04-26;MPZ-240;
'020641;020641;S024;jordi;0.5;2016-05-12;MPZ-240;
'020641;020641;S024;jordi;0.5;2016-05-23;MPZ-240;
'020641;020641;S024;jordi;0.25;2016-05-23;MPZ-240;
'020641;020641;S024;jordi;0.25;2016-05-23;MPZ-240;
'020641;020641;S028;jos;0.25;2016-05-23;MPZ-240;
'020641;020641;S024;jordi;0.25;2016-05-26;MPZ-240;
'020641;020641;S005;xander;0.5;2016-05-31;MPZ-240;
'020641;020641;S028;jos;2.0;2016-05-10;MPZ-278;
'020641;020641;S024;jordi;2.0;2016-05-10;MPZ-278;
'020641;020641;S024;jordi;0.5;2016-04-26;MPZ-281;
'020641;020641;S028;jos;1.5;2016-05-03;MPZ-281;
'020641;020641;S024;jordi;2.0;2016-05-03;MPZ-281;
'020641;020641;S021;ron.peeters;2.0;2016-05-03;MPZ-281;
'020641;020641;S011;maarten.jongerius;1.5;2016-05-03;MPZ-281;
'020641;020641;S024;jordi;2.0;2016-05-06;MPZ-281;
'020641;020641;S024;jordi;1.0;2016-05-06;MPZ-281;
'020641;020641;S024;jordi;5.0;2016-05-19;MPZ-336;
'020641;020641;S028;jos;0.75;2016-05-24;MPZ-337;
'020641;020641;S028;jos;0.25;2016-05-25;MPZ-337;
'020641;020641;S024;jordi;1.0;2016-05-25;MPZ-337;
'020641;020641;S021;ron.peeters;0.5;2016-05-25;MPZ-337;
'020641;020641;S024;jordi;0.5;2016-05-30;MPZ-337;
'020283;020283;S021;ron.peeters;0.5;2016-04-13;BIL-173;
'020283;020283;S021;ron.peeters;1.0;2016-04-20;BIL-174;
'020283;020283;S021;ron.peeters;0.5;2016-04-25;BIL-174;
'020283;020283;S020;jimmy;1.5;2016-04-26;BIL-174;
'020283;020283;S021;ron.peeters;1.5;2016-04-26;BIL-174;
'020283;020283;S021;ron.peeters;0.5;2016-04-26;BIL-174;
'020283;020283;S020;jimmy;1.5;2016-04-28;BIL-174;
'020283;020283;S023;tim;0.75;2016-05-17;BIL-174;
'020283;020283;S021;ron.peeters;2.5;2016-05-18;BIL-174;
'020283;020283;S021;ron.peeters;0.5;2016-04-13;BIL-175;
'020283;020283;S021;ron.peeters;0.5;2016-04-18;BIL-175;
'020283;020283;S021;ron.peeters;0.25;2016-04-19;BIL-175;
'020283;020283;S021;ron.peeters;1.0;2016-05-18;BIL-175;
'020283;020283;S020;jimmy;0.5;2016-04-21;BIL-176;
'020283;020283;S020;jimmy;0.5;2016-04-22;BIL-176;
'020283;020283;S020;jimmy;2.0;2016-04-29;BIL-176;
'020283;020283;S020;jimmy;0.75;2016-05-03;BIL-176;
'020283;020283;S024;jordi;0.25;2016-05-02;BIL-177;
'020283;020283;S024;jordi;0.25;2016-05-04;BIL-177;
'020283;020283;S024;jordi;1.0;2016-05-17;BIL-177;
'020283;020283;S021;ron.peeters;2.0;2016-05-04;BIL-178;
'019973;019973;S024;jordi;0.75;2016-05-03;REG-357;
'019973;019973;S021;ron.peeters;0.5;2016-05-02;REG-358;
'019973;019973;S021;ron.peeters;0.25;2016-05-02;REG-358;
'019973;019973;S021;ron.peeters;0.41666666;2016-05-09;REG-358;
'019973;019973;S021;ron.peeters;0.8333333;2016-05-09;REG-358;
'019973;019973;S021;ron.peeters;0.5;2016-05-23;REG-358;
'019973;019973;S021;ron.peeters;0.5;2016-05-25;REG-358;
'019973;019973;S021;ron.peeters;1.0;2016-05-26;REG-358;
'019973;019973;S021;ron.peeters;1.0;2016-05-30;REG-359;
'019973;019973;S024;jordi;0.5;2016-05-30;REG-359;
'019973;019973;S021;ron.peeters;0.5;2016-05-30;REG-359;
'019973;019973;S024;jordi;0.25;2016-05-11;REG-360;
'019973;019973;S021;ron.peeters;0.5;2016-05-30;REG-360;
'019973;019973;S021;ron.peeters;1.0;2016-05-30;REG-360;
'019973;019973;S024;jordi;0.5;2016-05-30;REG-360;
'019973;019973;SU004;alexanderwttewaall;7.0;2016-05-24;REG-361;
'019973;019973;SU004;alexanderwttewaall;8.0;2016-05-25;REG-361;
'019973;019973;S024;jordi;1.0;2016-05-27;REG-361;
'019973;019973;S024;jordi;1.0;2016-05-27;REG-361;
'019973;019973;S024;jordi;0.5;2016-05-04;REG-362;
'019973;019973;S024;jordi;0.5;2016-05-10;REG-362;
'019973;019973;S024;jordi;0.25;2016-05-20;REG-364;
'019973;019973;S024;jordi;0.25;2016-05-20;REG-365;
'019973;019973;S024;jordi;0.25;2016-05-31;REG-366;
'019973;019973;S021;ron.peeters;0.41666666;2016-04-06;REG-239;
'019973;019973;S021;ron.peeters;0.16666667;2016-04-06;REG-239;
'019973;019973;S005;xander;1.0;2016-04-07;REG-319;
'019973;019973;S005;xander;1.0;2016-04-08;REG-319;
'019973;019973;S007;martin.molenkamp;1.0;2016-04-12;REG-332;
'019973;019973;S005;xander;0.75;2016-04-12;REG-332;
'019973;019973;S023;tim;0.5;2016-04-12;REG-332;
'019973;019973;S009;michiel;0.75;2016-04-12;REG-332;
'019973;019973;S024;jordi;0.25;2016-04-18;REG-332;
'019973;019973;S021;ron.peeters;0.33333334;2016-04-19;REG-332;
'019973;019973;S024;jordi;0.25;2016-05-19;REG-332;
'019973;019973;S021;ron.peeters;0.25;2016-04-19;REG-335;
'019973;019973;S021;ron.peeters;1.0;2016-04-26;REG-335;
'019973;019973;S020;jimmy;1.0;2016-05-06;REG-335;
'019973;019973;S020;jimmy;1.0;2016-05-06;REG-335;
'019973;019973;S020;jimmy;1.0;2016-05-10;REG-335;
'019973;019973;S020;jimmy;0.75;2016-05-12;REG-335;
'019973;019973;S021;ron.peeters;0.33333334;2016-04-19;REG-343;
'019973;019973;S021;ron.peeters;1.0;2016-04-19;REG-343;
'019973;019973;S021;ron.peeters;0.5;2016-04-20;REG-343;
'019973;019973;S021;ron.peeters;0.5;2016-04-20;REG-343;
'019973;019973;S021;ron.peeters;0.083333336;2016-04-25;REG-343;
'019973;019973;S021;ron.peeters;1.5;2016-04-26;REG-343;
'019973;019973;S028;jos;0.16666667;2016-04-26;REG-343;
'019973;019973;S021;ron.peeters;0.25;2016-04-26;REG-343;
'019973;019973;S021;ron.peeters;0.5;2016-05-02;REG-343;
'019973;019973;S005;xander;1.75;2016-04-08;REG-344;
'019973;019973;S021;ron.peeters;1.0;2016-04-05;REG-346;
'019973;019973;S021;ron.peeters;0.25;2016-04-06;REG-346;
'019973;019973;S020;jimmy;0.5;2016-04-06;REG-347;
'019973;019973;S020;jimmy;0.75;2016-04-07;REG-347;
'019973;019973;S020;jimmy;1.0;2016-04-13;REG-348;
'019973;019973;S020;jimmy;0.5;2016-04-13;REG-348;
'019973;019973;S020;jimmy;1.5;2016-04-21;REG-348;
'019973;019973;S021;ron.peeters;0.5;2016-04-26;REG-348;
'019973;019973;S021;ron.peeters;2.0;2016-05-02;REG-348;
'019973;019973;S021;ron.peeters;0.5;2016-05-02;REG-348;
'019973;019973;S020;jimmy;0.5;2016-05-03;REG-348;
'019973;019973;S020;jimmy;0.5;2016-05-03;REG-348;
'019973;019973;S020;jimmy;0.5;2016-05-04;REG-348;
'019973;019973;S020;jimmy;1.0;2016-05-04;REG-348;
'019973;019973;S020;jimmy;1.5;2016-04-08;REG-349;
'019973;019973;S005;xander;0.75;2016-04-12;REG-350;
'019973;019973;S009;michiel;5.0;2016-04-13;REG-352;
'019973;019973;S005;xander;5.0;2016-04-13;REG-352;
'019973;019973;S024;jordi;0.25;2016-04-14;REG-353;
'019973;019973;S021;ron.peeters;0.5;2016-04-25;REG-355;
'019973;019973;S021;ron.peeters;0.5;2016-04-26;REG-355;
'019973;019973;S021;ron.peeters;0.33333334;2016-04-25;REG-356;
'019973;019973;S021;ron.peeters;0.33333334;2016-04-25;REG-356;
'019973;019973;S021;ron.peeters;0.33;2016-04-26;REG-356;
'019558;019558;S020;jimmy;0.5;2016-04-05;THT-320;
'019558;019558;S007;martin.molenkamp;1.0;2016-04-01;THT-329;
'019558;019558;S024;jordi;0.75;2016-04-28;THT-329;
'019558;019558;S024;jordi;0.5;2016-04-29;THT-329;
'019558;019558;S024;jordi;1.0;2016-05-02;THT-329;
'019558;019558;S024;jordi;0.75;2016-05-09;THT-329;
'019558;019558;S024;jordi;0.5;2016-05-30;THT-329;
'019558;019558;S021;ron.peeters;0.75;2016-04-13;THT-331;
'019558;019558;S021;ron.peeters;0.25;2016-04-13;THT-331;
'019558;019558;S020;jimmy;1.0;2016-04-11;THT-332;
'019558;019558;S020;jimmy;1.0;2016-04-12;THT-332;
'019558;019558;S020;jimmy;1.75;2016-04-13;THT-332;
'019558;019558;S020;jimmy;1.0;2016-04-19;THT-332;
'019558;019558;S021;ron.peeters;0.75;2016-04-13;THT-333;
'019558;019558;S021;ron.peeters;0.5;2016-04-20;THT-333;
'019558;019558;S021;ron.peeters;0.5;2016-04-25;THT-334;
'019558;019558;S024;jordi;0.5;2016-04-25;THT-334;
'019558;019558;S021;ron.peeters;0.5;2016-04-25;THT-334;
'019558;019558;S021;ron.peeters;1.0;2016-04-21;THT-335;
'019558;019558;S021;ron.peeters;1.0;2016-04-25;THT-335;
'019558;019558;S021;ron.peeters;0.33333334;2016-05-09;THT-337;
'019558;019558;S024;jordi;0.5;2016-05-09;THT-293;
'019558;019558;S011;maarten.jongerius;2.0;2016-05-20;THT-323;
'019558;019558;S021;ron.peeters;0.75;2016-05-24;THT-323;
'019558;019558;S021;ron.peeters;1.5;2016-04-13;THT-327;
'019558;019558;S009;michiel;2.25;2016-05-27;THT-330;
'019558;019558;S009;michiel;3.75;2016-05-31;THT-330;
'019558;019558;S021;ron.peeters;1.0;2016-05-11;THT-336;
'019558;019558;S021;ron.peeters;0.25;2016-05-23;THT-336;
'019558;019558;S002;gijs.epping;2.75;2016-05-25;THT-336;
'019558;019558;S024;jordi;1.0;2016-05-26;THT-338;
'019558;019558;S009;michiel;3.0;2016-05-27;THT-338;
'019558;019558;S009;michiel;0.5;2016-05-31;THT-338;
'019558;019558;S011;maarten.jongerius;1.5;2016-05-20;THT-339;
'019558;019558;S023;tim;8.0;2016-05-26;THT-343;
'019558;019558;S023;tim;5.0;2016-05-31;THT-343;
'019515;019515;S005;xander;1.5;2016-04-08;DEAL-18;
'019515;019515;S032;arjan.van.emmerik;2.0;2016-05-26;DEAL-22;
'019515;019515;S032;arjan.van.emmerik;2.0;2016-05-31;DEAL-22;
'019515;019515;S002;gijs.epping;7.0;2016-05-12;DEAL-25;
'019515;019515;S007;martin.molenkamp;1.0;2016-04-05;DEAL-28;
'019515;019515;S007;martin.molenkamp;1.0;2016-04-26;DEAL-28;
'019515;019515;S028;jos;3.5;2016-04-11;DEAL-29;
'019515;019515;S011;maarten.jongerius;1.5;2016-05-17;DEAL-29;
'019515;019515;S032;arjan.van.emmerik;8.0;2016-05-23;DEAL-29;
'019515;019515;S032;arjan.van.emmerik;7.5;2016-05-24;DEAL-29;
'019515;019515;S032;arjan.van.emmerik;8.0;2016-05-25;DEAL-29;
'019515;019515;S032;arjan.van.emmerik;5.5;2016-05-26;DEAL-29;
'019515;019515;S011;maarten.jongerius;1.0;2016-05-26;DEAL-29;
'019515;019515;S032;arjan.van.emmerik;7.5;2016-05-30;DEAL-29;
'019515;019515;S032;arjan.van.emmerik;5.5;2016-05-31;DEAL-29;
'019406;019406;S009;michiel;2.0;2016-04-04;NIB-27;
'019406;019406;S009;michiel;4.5;2016-04-04;NIB-28;
'019406;019406;S021;ron.peeters;1.0;2016-04-25;NIB-43;
'019406;019406;S021;ron.peeters;0.5;2016-04-11;NIB-46;
'019406;019406;S021;ron.peeters;0.25;2016-04-11;NIB-47;
'019406;019406;S021;ron.peeters;0.75;2016-04-14;NIB-48;
'019406;019406;S021;ron.peeters;0.15;2016-04-18;NIB-48;
'019406;019406;S021;ron.peeters;0.5;2016-04-25;NIB-49;
'019406;019406;S021;ron.peeters;1.0;2016-05-19;NIB-49;
'019406;019406;S021;ron.peeters;1.0;2016-04-20;NIB-50;
'019406;019406;S021;ron.peeters;0.5;2016-04-21;NIB-50;
'019406;019406;S021;ron.peeters;0.5;2016-04-25;NIB-50;
'019406;019406;S021;ron.peeters;1.0;2016-04-18;NIB-51;
'019406;019406;S020;jimmy;1.75;2016-04-21;NIB-52;
'019406;019406;S020;jimmy;2.0;2016-04-21;NIB-52;
'019406;019406;S020;jimmy;1.0;2016-04-22;NIB-52;
'019406;019406;S020;jimmy;0.5;2016-05-03;NIB-52;
'019406;019406;S021;ron.peeters;0.25;2016-05-24;NIB-53;
'019406;019406;S021;ron.peeters;2.0;2016-05-26;NIB-53;
'019406;019406;S021;ron.peeters;0.75;2016-05-30;NIB-53;
'019405;019405;S021;ron.peeters;0.25;2016-04-06;BUMA-83;
'019405;019405;S024;jordi;0.75;2016-04-15;BUMA-83;
'019405;019405;S024;jordi;0.5;2016-04-18;BUMA-83;
'019405;019405;S024;jordi;0.5;2016-04-19;BUMA-83;
'019405;019405;S024;jordi;0.5;2016-04-19;BUMA-83;
'019405;019405;S024;jordi;0.75;2016-05-19;BUMA-83;
'019405;019405;S024;jordi;0.25;2016-05-23;BUMA-83;
'019405;019405;S024;jordi;0.5;2016-05-26;BUMA-83;
'019405;019405;S024;jordi;0.5;2016-05-31;BUMA-83;
'019405;019405;S023;tim;4.0;2016-05-09;BUMA-84;
'019405;019405;S023;tim;2.75;2016-05-11;BUMA-84;
'019405;019405;S009;michiel;6.25;2016-05-13;BUMA-84;
'019405;019405;S009;michiel;1.0;2016-05-25;BUMA-84;
'019405;019405;S009;michiel;1.0;2016-05-25;BUMA-84;
'019405;019405;S024;jordi;1.0;2016-04-19;BUMA-87;
'019405;019405;S009;michiel;2.0;2016-05-04;BUMA-90;
'019405;019405;S009;michiel;2.25;2016-05-11;BUMA-90;
'019405;019405;S009;michiel;4.5;2016-05-12;BUMA-90;
'019405;019405;S009;michiel;2.0;2016-05-18;BUMA-90;
'019405;019405;S009;michiel;4.0;2016-05-17;BUMA-91;
'019405;019405;S009;michiel;0.5;2016-05-24;BUMA-91;
'019405;019405;S024;jordi;0.5;2016-05-26;BUMA-94;
'019405;019405;S024;jordi;1.0;2016-05-30;BUMA-94;
'019405;019405;S024;jordi;0.25;2016-05-30;BUMA-94;
'019405;019405;S009;michiel;2.0;2016-05-26;BUMA-95;
'019405;019405;S009;michiel;0.25;2016-05-27;BUMA-95;
'019405;019405;S021;ron.peeters;1.0;2016-05-26;BUMA-96;
'019405;019405;S024;jordi;0.5;2016-04-18;BUMA-88;
'019405;019405;S024;jordi;0.5;2016-04-19;BUMA-88;
'019405;019405;S024;jordi;1.0;2016-04-21;BUMA-88;
'019405;019405;S024;jordi;0.5;2016-05-31;BUMA-89;
'017388;017388;S009;michiel;3.0;2016-04-05;VITA-178;
'017388;017388;S009;michiel;0.25;2016-04-06;VITA-178;
'017388;017388;S024;jordi;1.0;2016-04-21;VITA-180;
'017388;017388;S024;jordi;0.25;2016-04-25;VITA-181;
'017388;017388;S024;jordi;2.0;2016-04-28;VITA-182;
'017388;017388;S009;michiel;0.25;2016-05-04;VITA-186;
'017388;017388;S024;jordi;1.0;2016-05-18;VITA-187;
'017388;017388;S021;ron.peeters;0.25;2016-05-18;VITA-187;
'017388;017388;S024;jordi;0.25;2016-05-26;VITA-189;
'017388;017388;S021;ron.peeters;5.0;2016-05-26;VITA-184;
'017381;017381;S024;jordi;0.5;2016-04-25;SEN-171;
'017381;017381;S021;ron.peeters;0.5;2016-04-04;SEN-174;
'017381;017381;S021;ron.peeters;2.0;2016-04-04;SEN-175;
'017381;017381;S024;jordi;1.0;2016-04-14;SEN-176;
'017381;017381;S024;jordi;3.0;2016-04-15;SEN-176;
'017381;017381;S024;jordi;3.0;2016-04-18;SEN-176;
'017381;017381;S024;jordi;0.75;2016-04-28;SEN-179;
'017381;017381;S021;ron.peeters;1.0;2016-05-04;SEN-179;
'017381;017381;S021;ron.peeters;1.5;2016-05-04;SEN-179;
'017381;017381;S002;gijs.epping;2.75;2016-05-19;SEN-179;
'017381;017381;S024;jordi;0.5;2016-04-19;SEN-180;
'017381;017381;S024;jordi;1.0;2016-04-25;SEN-181;
'017381;017381;S024;jordi;0.75;2016-05-27;SEN-182;
'017381;017381;S024;jordi;0.25;2016-05-30;SEN-183;
'017381;017381;S024;jordi;1.0;2016-05-30;SEN-183;
'017359;ESRA;S007;martin.molenkamp;4.0;2016-04-19;ESRA-60;
'017359;ESRA;S005;xander;4.5;2016-04-19;ESRA-60;
'017359;ESRA;S005;xander;0.5;2016-04-26;ESRA-60;
'017359;ESRA;S020;jimmy;1.0;2016-04-08;ESRA-61;
'017359;ESRA;S024;jordi;2.25;2016-04-13;ESRA-61;
'017359;ESRA;S020;jimmy;1.5;2016-04-19;ESRA-61;
'017359;ESRA;S024;jordi;0.5;2016-05-26;ESRA-61;
'017359;ESRA;S024;jordi;1.5;2016-04-01;ESRA-62;
'017359;ESRA;S021;ron.peeters;0.25;2016-04-04;ESRA-62;
'017359;ESRA;S021;ron.peeters;0.75;2016-04-11;ESRA-63;
'017359;ESRA;S020;jimmy;0.5;2016-04-12;ESRA-63;
'017359;ESRA;S020;jimmy;2.0;2016-04-13;ESRA-63;
'017359;ESRA;S024;jordi;0.25;2016-04-15;ESRA-64;
'017359;ESRA;S024;jordi;1.0;2016-05-02;ESRA-67;
'017359;ESRA;S024;jordi;0.5;2016-05-26;ESRA-69;
'017359;ESRA;S024;jordi;0.5;2016-05-30;ESRA-70;
'017359;ESRA;S024;jordi;0.5;2016-04-25;ESRA-65;
'017359;ESRA;S024;jordi;0.5;2016-05-17;ESRA-65;
'017359;ESRA;S021;ron.peeters;1.5;2016-05-17;ESRA-65;
'017359;ESRA;S024;jordi;1.0;2016-05-27;ESRA-65;
'017359;ESRA;S024;jordi;0.5;2016-05-30;ESRA-65;
'017359;ESRA;S024;jordi;0.25;2016-04-25;ESRA-66;
'017359;ESRA;S005;xander;0.75;2016-05-20;ESRA-66;
'017359;ESRA;S005;xander;3.0;2016-05-25;ESRA-66;
'017359;ESRA;S005;xander;3.0;2016-05-25;ESRA-66;
'017359;ESRA;S005;xander;3.0;2016-05-25;ESRA-66;
'017359;ESRA;S005;xander;3.0;2016-05-25;ESRA-66;
'017359;ESRA;S005;xander;3.0;2016-05-25;ESRA-66;
'017359;ESRA;S005;xander;3.0;2016-05-25;ESRA-66;
'017359;ESRA;S005;xander;3.0;2016-05-25;ESRA-66;
'017359;ESRA;S005;xander;3.0;2016-05-25;ESRA-66;
'017359;ESRA;S005;xander;3.0;2016-05-25;ESRA-66;
'017359;ESRA;S005;xander;3.0;2016-05-25;ESRA-66;
'017359;ESRA;S005;xander;3.0;2016-05-25;ESRA-66;
'017359;ESRA;S005;xander;3.0;2016-05-25;ESRA-66;
'017359;ESRA;S005;xander;3.0;2016-05-25;ESRA-66;
'017359;ESRA;S005;xander;3.0;2016-05-25;ESRA-66;
'017359;ESRA;S005;xander;3.0;2016-05-25;ESRA-66;
'017359;ESRA;S005;xander;3.0;2016-05-25;ESRA-66;
'017359;ESRA;S005;xander;3.0;2016-05-25;ESRA-66;
'017359;ESRA;S005;xander;3.0;2016-05-25;ESRA-66;
'017359;ESRA;S005;xander;3.0;2016-05-25;ESRA-66;
'017359;ESRA;S005;xander;3.0;2016-05-25;ESRA-66;
'017359;ESRA;S005;xander;3.0;2016-05-25;ESRA-66;
'017359;ESRA;S005;xander;3.0;2016-05-25;ESRA-66;
'017359;ESRA;S005;xander;3.0;2016-05-25;ESRA-66;
'017359;ESRA;S005;xander;3.0;2016-05-25;ESRA-66;
'017359;ESRA;S005;xander;3.0;2016-05-25;ESRA-66;
'017359;ESRA;S005;xander;3.0;2016-05-25;ESRA-66;
'017359;ESRA;S005;xander;3.0;2016-05-25;ESRA-66;
'017359;ESRA;S005;xander;3.0;2016-05-25;ESRA-66;
'010226;010226;S023;tim;0.5;2016-04-08;AFAS-75;
'010226;010226;S023;tim;1.5;2016-04-07;AFAS-76;
'010226;010226;S023;tim;6.5;2016-04-08;AFAS-76;
'010226;010226;S023;tim;6.25;2016-04-11;AFAS-76;
'010226;010226;S023;tim;6.0;2016-04-12;AFAS-76;
'010226;010226;S023;tim;2.75;2016-04-14;AFAS-76;
'010226;010226;S023;tim;4.75;2016-04-15;AFAS-76;
'010226;010226;S009;michiel;7.75;2016-04-18;AFAS-76;
'010226;010226;S009;michiel;5.75;2016-04-19;AFAS-76;
'010226;010226;S023;tim;2.5;2016-04-19;AFAS-76;
'010226;010226;S009;michiel;3.25;2016-04-20;AFAS-76;
'010226;010226;S023;tim;1.25;2016-04-20;AFAS-76;
'010226;010226;S009;michiel;6.0;2016-04-25;AFAS-76;
'010226;010226;S009;michiel;6.5;2016-04-26;AFAS-76;
'010226;010226;S009;michiel;3.75;2016-04-28;AFAS-76;
'010226;010226;S023;tim;3.5;2016-04-28;AFAS-76;
'010226;010226;S023;tim;1.5;2016-04-01;AFAS-77;
'010226;010226;S009;michiel;0.75;2016-04-04;AFAS-77;
'010226;010226;S023;tim;1.0;2016-04-05;AFAS-77;
'010226;010226;S020;jimmy;2.0;2016-04-05;AFAS-79;
'010226;010226;S023;tim;1.0;2016-04-05;AFAS-79;
'010226;010226;S009;michiel;2.0;2016-04-05;AFAS-79;
'010226;010226;S020;jimmy;0.5;2016-04-06;AFAS-79;
'010226;010226;S023;tim;0.5;2016-04-05;AFAS-80;
'010226;010226;S021;ron.peeters;0.25;2016-04-05;ANS-25;
'010226;010226;S021;ron.peeters;1.0;2016-04-04;ANS-4;
'010226;010226;S021;ron.peeters;1.0;2016-04-04;ANS-9;
'010226;010226;S023;tim;0.5;2016-05-03;DLT-1;
'010226;010226;S005;xander;0.75;2016-04-06;INTERN-185;
'010226;010226;S005;xander;0.5;2016-04-20;INTERN-185;
'010226;010226;S005;xander;0.5;2016-04-22;INTERN-185;
'010226;010226;SU004;alexanderwttewaall;3.0;2016-04-25;INTERN-185;
'010226;010226;S020;jimmy;3.0;2016-04-26;INTERN-185;
'010226;010226;S005;xander;1.0;2016-05-10;INTERN-185;
'010226;010226;S005;xander;0.5;2016-04-01;INTERN-186;
'010226;010226;S005;xander;0.5;2016-04-15;INTERN-186;
'010226;010226;S011;maarten.jongerius;0.5;2016-05-03;INTERN-186;
'010226;010226;S005;xander;0.5;2016-05-06;INTERN-186;
'010226;010226;S024;jordi;0.5;2016-04-01;INTERN-187;
'010226;010226;S007;martin.molenkamp;2.0;2016-04-04;INTERN-187;
'010226;010226;S007;martin.molenkamp;1.0;2016-04-04;INTERN-187;
'010226;010226;S007;martin.molenkamp;2.0;2016-04-05;INTERN-187;
'010226;010226;S023;tim;1.0;2016-04-05;INTERN-187;
'010226;010226;S028;jos;0.75;2016-04-05;INTERN-187;
'010226;010226;S005;xander;0.75;2016-04-06;INTERN-187;
'010226;010226;S009;michiel;0.5;2016-04-06;INTERN-187;
'010226;010226;S028;jos;0.75;2016-04-11;INTERN-187;
'010226;010226;S024;jordi;0.75;2016-04-11;INTERN-187;
'010226;010226;S007;martin.molenkamp;2.0;2016-04-11;INTERN-187;
'010226;010226;S028;jos;0.75;2016-04-12;INTERN-187;
'010226;010226;S028;jos;0.75;2016-04-13;INTERN-187;
'010226;010226;S011;maarten.jongerius;0.5;2016-04-13;INTERN-187;
'010226;010226;S020;jimmy;1.0;2016-04-14;INTERN-187;
'010226;010226;S028;jos;1.0;2016-04-14;INTERN-187;
'010226;010226;S024;jordi;0.5;2016-04-15;INTERN-187;
'010226;010226;S028;jos;0.5;2016-04-18;INTERN-187;
'010226;010226;S020;jimmy;1.5;2016-04-19;INTERN-187;
'010226;010226;S028;jos;0.5;2016-04-19;INTERN-187;
'010226;010226;S028;jos;0.5;2016-04-20;INTERN-187;
'010226;010226;S024;jordi;0.75;2016-04-20;INTERN-187;
'010226;010226;S028;jos;0.5;2016-04-21;INTERN-187;
'010226;010226;S011;maarten.jongerius;0.75;2016-04-21;INTERN-187;
'010226;010226;S020;jimmy;1.0;2016-04-22;INTERN-187;
'010226;010226;S020;jimmy;0.5;2016-04-22;INTERN-187;
'010226;010226;S024;jordi;2.0;2016-04-22;INTERN-187;
'010226;010226;S011;maarten.jongerius;1.0;2016-04-22;INTERN-187;
'010226;010226;S024;jordi;5.0;2016-04-22;INTERN-187;
'010226;010226;S028;jos;1.0;2016-04-25;INTERN-187;
'010226;010226;S024;jordi;0.5;2016-04-25;INTERN-187;
'010226;010226;S028;jos;1.0;2016-04-25;INTERN-187;
'010226;010226;S024;jordi;0.25;2016-04-26;INTERN-187;
'010226;010226;S028;jos;1.5;2016-04-26;INTERN-187;
'010226;010226;S007;martin.molenkamp;1.0;2016-04-26;INTERN-187;
'010226;010226;S007;martin.molenkamp;1.0;2016-04-28;INTERN-187;
'010226;010226;S028;jos;1.0;2016-04-29;INTERN-187;
'010226;010226;S007;martin.molenkamp;3.0;2016-04-29;INTERN-187;
'010226;010226;S007;martin.molenkamp;2.0;2016-04-29;INTERN-187;
'010226;010226;S024;jordi;0.5;2016-05-02;INTERN-187;
'010226;010226;S024;jordi;0.5;2016-05-02;INTERN-187;
'010226;010226;SU004;alexanderwttewaall;8.0;2016-05-02;INTERN-187;
'010226;010226;S028;jos;1.5;2016-05-02;INTERN-187;
'010226;010226;S024;jordi;0.5;2016-05-02;INTERN-187;
'010226;010226;S020;jimmy;0.5;2016-05-03;INTERN-187;
'010226;010226;S024;jordi;3.0;2016-05-03;INTERN-187;
'010226;010226;S028;jos;1.0;2016-05-03;INTERN-187;
'010226;010226;S009;michiel;1.0;2016-05-03;INTERN-187;
'010226;010226;SU004;alexanderwttewaall;8.0;2016-05-03;INTERN-187;
'010226;010226;S020;jimmy;0.75;2016-05-04;INTERN-187;
'010226;010226;S024;jordi;2.0;2016-05-04;INTERN-187;
'010226;010226;S028;jos;1.0;2016-05-04;INTERN-187;
'010226;010226;SU004;alexanderwttewaall;8.0;2016-05-04;INTERN-187;
'010226;010226;S024;jordi;1.0;2016-05-04;INTERN-187;
'010226;010226;S024;jordi;1.0;2016-05-05;INTERN-187;
'010226;010226;S024;jordi;1.0;2016-05-06;INTERN-187;
'010226;010226;S005;xander;1.25;2016-05-06;INTERN-187;
'010226;010226;S024;jordi;1.5;2016-05-06;INTERN-187;
'010226;010226;S024;jordi;1.0;2016-05-06;INTERN-187;
'010226;010226;S020;jimmy;1.0;2016-05-06;INTERN-187;
'010226;010226;S032;arjan.van.emmerik;8.0;2016-05-09;INTERN-187;
'010226;010226;S028;jos;1.0;2016-05-10;INTERN-187;
'010226;010226;S028;jos;1.5;2016-05-11;INTERN-187;
'010226;010226;S009;michiel;1.0;2016-05-11;INTERN-187;
'010226;010226;S005;xander;0.25;2016-05-11;INTERN-187;
'010226;010226;S028;jos;1.0;2016-05-12;INTERN-187;
'010226;010226;SU004;alexanderwttewaall;8.0;2016-05-13;INTERN-187;
'010226;010226;SU004;alexanderwttewaall;8.0;2016-05-17;INTERN-187;
'010226;010226;S011;maarten.jongerius;1.5;2016-05-17;INTERN-187;
'010226;010226;S009;michiel;0.5;2016-05-17;INTERN-187;
'010226;010226;S007;martin.molenkamp;8.0;2016-05-17;INTERN-187;
'010226;010226;S023;tim;1.75;2016-05-17;INTERN-187;
'010226;010226;S028;jos;1.0;2016-05-17;INTERN-187;
'010226;010226;SU004;alexanderwttewaall;8.0;2016-05-18;INTERN-187;
'010226;010226;S028;jos;1.0;2016-05-18;INTERN-187;
'010226;010226;S007;martin.molenkamp;9.0;2016-05-18;INTERN-187;
'010226;010226;SU004;alexanderwttewaall;8.0;2016-05-19;INTERN-187;
'010226;010226;S007;martin.molenkamp;9.0;2016-05-19;INTERN-187;
'010226;010226;S028;jos;1.0;2016-05-19;INTERN-187;
'010226;010226;SU004;alexanderwttewaall;5.25;2016-05-20;INTERN-187;
'010226;010226;S007;martin.molenkamp;8.5;2016-05-20;INTERN-187;
'010226;010226;S009;michiel;1.0;2016-05-20;INTERN-187;
'010226;010226;S011;maarten.jongerius;1.5;2016-05-20;INTERN-187;
'010226;010226;S024;jordi;1.0;2016-05-20;INTERN-187;
'010226;010226;S011;maarten.jongerius;1.5;2016-05-20;INTERN-187;
'010226;010226;SU004;alexanderwttewaall;8.0;2016-05-23;INTERN-187;
'010226;010226;S028;jos;0.25;2016-05-23;INTERN-187;
'010226;010226;SU004;alexanderwttewaall;1.0;2016-05-24;INTERN-187;
'010226;010226;S009;michiel;1.0;2016-05-24;INTERN-187;
'010226;010226;S028;jos;0.5;2016-05-24;INTERN-187;
'010226;010226;S011;maarten.jongerius;0.5;2016-05-24;INTERN-187;
'010226;010226;S028;jos;0.5;2016-05-25;INTERN-187;
'010226;010226;S005;xander;0.5;2016-05-25;INTERN-187;
'010226;010226;S005;xander;1.0;2016-05-25;INTERN-187;
'010226;010226;S011;maarten.jongerius;0.5;2016-05-25;INTERN-187;
'010226;010226;S028;jos;6.5;2016-05-26;INTERN-187;
'010226;010226;S011;maarten.jongerius;1.25;2016-05-26;INTERN-187;
'010226;010226;SU004;alexanderwttewaall;8.0;2016-05-26;INTERN-187;
'010226;010226;S009;michiel;2.0;2016-05-26;INTERN-187;
'010226;010226;S005;xander;2.25;2016-05-26;INTERN-187;
'010226;010226;S011;maarten.jongerius;0.5;2016-05-26;INTERN-187;
'010226;010226;SU004;alexanderwttewaall;3.0;2016-05-27;INTERN-187;
'010226;010226;S009;michiel;1.5;2016-05-27;INTERN-187;
'010226;010226;S005;xander;0.25;2016-05-27;INTERN-187;
'010226;010226;S011;maarten.jongerius;0.5;2016-05-27;INTERN-187;
'010226;010226;S005;xander;4.0;2016-05-30;INTERN-187;
'010226;010226;S005;xander;0.25;2016-05-30;INTERN-187;
'010226;010226;S028;jos;2.5;2016-05-31;INTERN-187;
'010226;010226;S011;maarten.jongerius;2.0;2016-05-31;INTERN-187;
'010226;010226;S009;michiel;0.75;2016-05-31;INTERN-187;
'010226;010226;S024;jordi;0.5;2016-05-31;INTERN-187;
'010226;010226;S023;tim;0.75;2016-05-31;INTERN-187;
'010226;010226;S024;jordi;0.5;2016-04-01;INTERN-188;
'010226;010226;S007;martin.molenkamp;2.0;2016-04-01;INTERN-188;
'010226;010226;S007;martin.molenkamp;1.5;2016-04-04;INTERN-188;
'010226;010226;S007;martin.molenkamp;1.0;2016-04-04;INTERN-188;
'010226;010226;S007;martin.molenkamp;1.5;2016-04-06;INTERN-188;
'010226;010226;S007;martin.molenkamp;3.0;2016-04-07;INTERN-188;
'010226;010226;S007;martin.molenkamp;8.0;2016-04-08;INTERN-188;
'010226;010226;S007;martin.molenkamp;1.0;2016-04-11;INTERN-188;
'010226;010226;S007;martin.molenkamp;7.0;2016-04-12;INTERN-188;
'010226;010226;S024;jordi;0.75;2016-04-12;INTERN-188;
'010226;010226;S024;jordi;3.0;2016-04-14;INTERN-188;
'010226;010226;S011;maarten.jongerius;1.0;2016-04-14;INTERN-188;
'010226;010226;S005;xander;1.5;2016-04-14;INTERN-188;
'010226;010226;S021;ron.peeters;1.75;2016-04-14;INTERN-188;
'010226;010226;S009;michiel;1.0;2016-04-14;INTERN-188;
'010226;010226;S024;jordi;0.75;2016-04-15;INTERN-188;
'010226;010226;S024;jordi;0.5;2016-04-15;INTERN-188;
'010226;010226;S005;xander;2.0;2016-04-19;INTERN-188;
'010226;010226;S011;maarten.jongerius;1.0;2016-04-19;INTERN-188;
'010226;010226;S024;jordi;0.75;2016-04-20;INTERN-188;
'010226;010226;S011;maarten.jongerius;1.0;2016-04-20;INTERN-188;
'010226;010226;S005;xander;2.0;2016-04-21;INTERN-188;
'010226;010226;S024;jordi;1.5;2016-04-21;INTERN-188;
'010226;010226;S024;jordi;1.5;2016-04-21;INTERN-188;
'010226;010226;S011;maarten.jongerius;1.0;2016-04-22;INTERN-188;
'010226;010226;S023;tim;0.5;2016-04-22;INTERN-188;
'010226;010226;S009;michiel;0.25;2016-04-26;INTERN-188;
'010226;010226;S024;jordi;0.5;2016-04-26;INTERN-188;
'010226;010226;S024;jordi;0.5;2016-04-26;INTERN-188;
'010226;010226;S005;xander;0.25;2016-04-26;INTERN-188;
'010226;010226;S023;tim;0.5;2016-04-26;INTERN-188;
'010226;010226;S011;maarten.jongerius;0.75;2016-04-26;INTERN-188;
'010226;010226;S024;jordi;0.5;2016-04-26;INTERN-188;
'010226;010226;S023;tim;0.75;2016-04-28;INTERN-188;
'010226;010226;S009;michiel;0.25;2016-04-28;INTERN-188;
'010226;010226;S024;jordi;0.5;2016-05-02;INTERN-188;
'010226;010226;S009;michiel;0.5;2016-05-03;INTERN-188;
'010226;010226;S009;michiel;1.0;2016-05-03;INTERN-188;
'010226;010226;S009;michiel;3.0;2016-05-04;INTERN-188;
'010226;010226;S024;jordi;0.5;2016-05-06;INTERN-188;
'010226;010226;S011;maarten.jongerius;1.0;2016-05-06;INTERN-188;
'010226;010226;S024;jordi;0.5;2016-05-09;INTERN-188;
'010226;010226;S009;michiel;2.0;2016-05-10;INTERN-188;
'010226;010226;S009;michiel;1.5;2016-05-11;INTERN-188;
'010226;010226;S024;jordi;0.5;2016-05-12;INTERN-188;
'010226;010226;S024;jordi;1.25;2016-05-12;INTERN-188;
'010226;010226;S024;jordi;1.0;2016-05-12;INTERN-188;
'010226;010226;S024;jordi;1.0;2016-05-13;INTERN-188;
'010226;010226;S009;michiel;2.0;2016-05-13;INTERN-188;
'010226;010226;S009;michiel;0.5;2016-05-13;INTERN-188;
'010226;010226;S024;jordi;1.0;2016-05-13;INTERN-188;
'010226;010226;S024;jordi;1.0;2016-05-17;INTERN-188;
'010226;010226;S024;jordi;0.5;2016-05-18;INTERN-188;
'010226;010226;S024;jordi;1.5;2016-05-18;INTERN-188;
'010226;010226;S024;jordi;3.0;2016-05-20;INTERN-188;
'010226;010226;S024;jordi;1.0;2016-05-23;INTERN-188;
'010226;010226;S007;martin.molenkamp;2.0;2016-05-23;INTERN-188;
'010226;010226;S007;martin.molenkamp;2.0;2016-05-23;INTERN-188;
'010226;010226;S007;martin.molenkamp;4.0;2016-05-23;INTERN-188;
'010226;010226;S024;jordi;0.5;2016-05-23;INTERN-188;
'010226;010226;S024;jordi;0.25;2016-05-23;INTERN-188;
'010226;010226;S023;tim;1.5;2016-05-24;INTERN-188;
'010226;010226;S007;martin.molenkamp;8.0;2016-05-26;INTERN-188;
'010226;010226;S011;maarten.jongerius;1.0;2016-05-26;INTERN-188;
'010226;010226;S007;martin.molenkamp;8.0;2016-05-27;INTERN-188;
'010226;010226;S024;jordi;0.75;2016-05-27;INTERN-188;
'010226;010226;S021;ron.peeters;0.5;2016-04-04;INTERN-194;
'010226;010226;S021;ron.peeters;2.5;2016-04-05;INTERN-194;
'010226;010226;S009;michiel;1.0;2016-04-06;INTERN-194;
'010226;010226;S009;michiel;1.5;2016-04-06;INTERN-194;
'010226;010226;S009;michiel;1.5;2016-04-06;INTERN-194;
'010226;010226;S021;ron.peeters;1.25;2016-04-06;INTERN-194;
'010226;010226;S021;ron.peeters;1.0;2016-04-13;INTERN-194;
'010226;010226;S021;ron.peeters;1.0;2016-04-14;INTERN-194;
'010226;010226;S021;ron.peeters;1.15;2016-04-18;INTERN-194;
'010226;010226;S021;ron.peeters;2.15;2016-04-21;INTERN-194;
'010226;010226;S021;ron.peeters;2.0;2016-04-25;INTERN-194;
'010226;010226;S021;ron.peeters;2.0;2016-05-02;INTERN-194;
'010226;010226;S009;michiel;1.0;2016-05-03;INTERN-194;
'010226;010226;S021;ron.peeters;0.5;2016-05-03;INTERN-194;
'010226;010226;S021;ron.peeters;1.0;2016-05-03;INTERN-194;
'010226;010226;S021;ron.peeters;1.0;2016-05-04;INTERN-194;
'010226;010226;S009;michiel;1.0;2016-05-04;INTERN-194;
'010226;010226;S009;michiel;1.0;2016-05-04;INTERN-194;
'010226;010226;S021;ron.peeters;2.0;2016-05-09;INTERN-194;
'010226;010226;S021;ron.peeters;1.5;2016-05-10;INTERN-194;
'010226;010226;S009;michiel;1.0;2016-05-10;INTERN-194;
'010226;010226;S021;ron.peeters;0.25;2016-05-11;INTERN-194;
'010226;010226;S021;ron.peeters;1.0;2016-05-11;INTERN-194;
'010226;010226;S009;michiel;1.0;2016-05-12;INTERN-194;
'010226;010226;S009;michiel;0.25;2016-05-12;INTERN-194;
'010226;010226;S009;michiel;1.0;2016-05-12;INTERN-194;
'010226;010226;S021;ron.peeters;1.0;2016-05-12;INTERN-194;
'010226;010226;S009;michiel;2.0;2016-05-12;INTERN-194;
'010226;010226;S020;jimmy;0.5;2016-05-13;INTERN-194;
'010226;010226;S009;michiel;0.25;2016-05-13;INTERN-194;
'010226;010226;S009;michiel;2.0;2016-05-17;INTERN-194;
'010226;010226;S021;ron.peeters;2.0;2016-05-17;INTERN-194;
'010226;010226;S021;ron.peeters;1.0;2016-05-18;INTERN-194;
'010226;010226;S009;michiel;0.75;2016-05-18;INTERN-194;
'010226;010226;S009;michiel;1.25;2016-05-18;INTERN-194;
'010226;010226;S021;ron.peeters;0.75;2016-05-19;INTERN-194;
'010226;010226;S021;ron.peeters;0.5;2016-05-19;INTERN-194;
'010226;010226;S009;michiel;0.5;2016-05-20;INTERN-194;
'010226;010226;S009;michiel;1.0;2016-05-24;INTERN-194;
'010226;010226;S009;michiel;1.25;2016-05-24;INTERN-194;
'010226;010226;S009;michiel;1.0;2016-05-25;INTERN-194;
'010226;010226;S009;michiel;1.0;2016-05-25;INTERN-194;
'010226;010226;S009;michiel;0.25;2016-05-25;INTERN-194;
'010226;010226;S009;michiel;1.25;2016-05-25;INTERN-194;
'010226;010226;S009;michiel;0.5;2016-05-27;INTERN-194;
'010226;010226;S009;michiel;1.0;2016-05-27;INTERN-194;
'010226;010226;S009;michiel;0.5;2016-05-31;INTERN-194;
'010226;010226;S009;michiel;0.5;2016-05-31;INTERN-194;
'010226;010226;S009;michiel;0.25;2016-05-31;INTERN-194;
'010226;010226;S005;xander;0.75;2016-04-26;INTERN-203;
'010226;010226;S021;ron.peeters;0.5;2016-04-05;INTERN-209;
'010226;010226;S021;ron.peeters;1.0;2016-04-06;INTERN-209;
'010226;010226;S011;maarten.jongerius;1.5;2016-04-12;INTERN-209;
'010226;010226;S011;maarten.jongerius;1.0;2016-04-19;INTERN-209;
'010226;010226;S021;ron.peeters;0.5;2016-04-20;INTERN-209;
'010226;010226;S011;maarten.jongerius;0.5;2016-04-20;INTERN-209;
'010226;010226;S011;maarten.jongerius;1.0;2016-04-21;INTERN-209;
'010226;010226;S021;ron.peeters;0.5;2016-04-25;INTERN-209;
'010226;010226;S011;maarten.jongerius;1.5;2016-04-26;INTERN-209;
'010226;010226;S011;maarten.jongerius;0.5;2016-04-28;INTERN-209;
'010226;010226;S011;maarten.jongerius;0.5;2016-04-29;INTERN-209;
'010226;010226;S011;maarten.jongerius;0.5;2016-05-03;INTERN-209;
'010226;010226;S011;maarten.jongerius;1.5;2016-05-17;INTERN-209;
'010226;010226;S011;maarten.jongerius;1.0;2016-05-18;INTERN-209;
'010226;010226;S011;maarten.jongerius;2.0;2016-05-19;INTERN-209;
'010226;010226;S011;maarten.jongerius;0.75;2016-05-20;INTERN-209;
'010226;010226;S011;maarten.jongerius;1.5;2016-05-24;INTERN-209;
'010226;010226;S011;maarten.jongerius;1.0;2016-05-25;INTERN-209;
'010226;010226;S011;maarten.jongerius;1.0;2016-05-26;INTERN-209;
'010226;010226;S011;maarten.jongerius;1.0;2016-05-27;INTERN-209;
'010226;010226;S011;maarten.jongerius;2.0;2016-05-31;INTERN-209;
'010226;010226;S021;ron.peeters;1.0;2016-04-04;INTERN-211;
'010226;010226;S021;ron.peeters;0.5;2016-04-05;INTERN-212;
'010226;010226;S021;ron.peeters;0.8333333;2016-04-06;INTERN-213;
'010226;010226;S021;ron.peeters;4.75;2016-04-07;INTERN-213;
'010226;010226;S005;xander;0.5;2016-04-28;INTERN-216;
'010226;010226;S005;xander;1.0;2016-04-29;INTERN-216;
'010226;010226;S007;martin.molenkamp;4.0;2016-04-13;INTERN-218;
'010226;010226;S007;martin.molenkamp;4.0;2016-04-13;INTERN-218;
'010226;010226;S007;martin.molenkamp;6.0;2016-04-14;INTERN-218;
'010226;010226;S007;martin.molenkamp;1.0;2016-04-15;INTERN-218;
'010226;010226;S007;martin.molenkamp;4.0;2016-04-18;INTERN-218;
'010226;010226;S007;martin.molenkamp;4.0;2016-04-19;INTERN-218;
'010226;010226;S007;martin.molenkamp;4.0;2016-04-20;INTERN-218;
'010226;010226;S007;martin.molenkamp;1.5;2016-04-20;INTERN-218;
'010226;010226;S007;martin.molenkamp;1.0;2016-04-21;INTERN-218;
'010226;010226;S007;martin.molenkamp;7.0;2016-04-21;INTERN-218;
'010226;010226;S007;martin.molenkamp;1.0;2016-04-22;INTERN-218;
'010226;010226;S007;martin.molenkamp;2.0;2016-04-22;INTERN-218;
'010226;010226;S007;martin.molenkamp;3.0;2016-04-25;INTERN-218;
'010226;010226;S007;martin.molenkamp;3.0;2016-04-26;INTERN-218;
'010226;010226;S007;martin.molenkamp;4.0;2016-04-28;INTERN-218;
'010226;010226;S007;martin.molenkamp;8.0;2016-05-02;INTERN-218;
'010226;010226;S007;martin.molenkamp;9.0;2016-05-03;INTERN-218;
'010226;010226;S007;martin.molenkamp;3.0;2016-05-04;INTERN-218;
'010226;010226;S021;ron.peeters;1.75;2016-04-06;INTERN-219;
'010226;010226;S021;ron.peeters;1.5;2016-04-20;INTERN-219;
'010226;010226;S024;jordi;0.25;2016-04-25;INTERN-219;
'010226;010226;S024;jordi;0.25;2016-04-26;INTERN-219;
'010226;010226;S024;jordi;1.5;2016-04-26;INTERN-219;
'010226;010226;S011;maarten.jongerius;0.25;2016-04-26;INTERN-219;
'010226;010226;S011;maarten.jongerius;0.5;2016-04-26;INTERN-219;
'010226;010226;S024;jordi;0.25;2016-04-28;INTERN-219;
'010226;010226;S011;maarten.jongerius;0.25;2016-04-28;INTERN-219;
'010226;010226;S011;maarten.jongerius;0.5;2016-04-28;INTERN-219;
'010226;010226;S020;jimmy;0.5;2016-04-29;INTERN-219;
'010226;010226;S024;jordi;0.25;2016-04-29;INTERN-219;
'010226;010226;S024;jordi;2.0;2016-04-29;INTERN-219;
'010226;010226;S011;maarten.jongerius;0.25;2016-04-29;INTERN-219;
'010226;010226;S005;xander;0.75;2016-05-01;INTERN-219;
'010226;010226;S024;jordi;1.0;2016-05-02;INTERN-219;
'010226;010226;S028;jos;0.25;2016-05-02;INTERN-219;
'010226;010226;S024;jordi;0.25;2016-05-02;INTERN-219;
'010226;010226;S020;jimmy;0.25;2016-05-03;INTERN-219;
'010226;010226;S024;jordi;0.25;2016-05-03;INTERN-219;
'010226;010226;S028;jos;0.25;2016-05-03;INTERN-219;
'010226;010226;S009;michiel;0.25;2016-05-03;INTERN-219;
'010226;010226;S021;ron.peeters;0.25;2016-05-03;INTERN-219;
'010226;010226;S005;xander;0.25;2016-05-03;INTERN-219;
'010226;010226;S023;tim;0.25;2016-05-03;INTERN-219;
'010226;010226;S011;maarten.jongerius;0.25;2016-05-03;INTERN-219;
'010226;010226;S020;jimmy;1.0;2016-05-04;INTERN-219;
'010226;010226;S024;jordi;1.5;2016-05-04;INTERN-219;
'010226;010226;S024;jordi;0.25;2016-05-04;INTERN-219;
'010226;010226;S028;jos;0.25;2016-05-04;INTERN-219;
'010226;010226;S028;jos;0.5;2016-05-04;INTERN-219;
'010226;010226;S009;michiel;0.25;2016-05-04;INTERN-219;
'010226;010226;S005;xander;1.0;2016-05-04;INTERN-219;
'010226;010226;S023;tim;0.25;2016-05-04;INTERN-219;
'010226;010226;S023;tim;1.0;2016-05-04;INTERN-219;
'010226;010226;S011;maarten.jongerius;0.25;2016-05-04;INTERN-219;
'010226;010226;S011;maarten.jongerius;0.75;2016-05-04;INTERN-219;
'010226;010226;S021;ron.peeters;0.25;2016-05-04;INTERN-219;
'010226;010226;S024;jordi;0.25;2016-05-06;INTERN-219;
'010226;010226;S005;xander;0.25;2016-05-06;INTERN-219;
'010226;010226;S023;tim;0.25;2016-05-06;INTERN-219;
'010226;010226;S009;michiel;0.25;2016-05-06;INTERN-219;
'010226;010226;S020;jimmy;0.25;2016-05-06;INTERN-219;
'010226;010226;S028;jos;0.25;2016-05-09;INTERN-219;
'010226;010226;S024;jordi;0.25;2016-05-09;INTERN-219;
'010226;010226;S024;jordi;0.5;2016-05-09;INTERN-219;
'010226;010226;S005;xander;0.25;2016-05-09;INTERN-219;
'010226;010226;S020;jimmy;0.25;2016-05-10;INTERN-219;
'010226;010226;S028;jos;0.25;2016-05-10;INTERN-219;
'010226;010226;S009;michiel;0.25;2016-05-10;INTERN-219;
'010226;010226;S021;ron.peeters;0.5;2016-05-10;INTERN-219;
'010226;010226;S024;jordi;0.5;2016-05-10;INTERN-219;
'010226;010226;S024;jordi;0.75;2016-05-10;INTERN-219;
'010226;010226;S009;michiel;0.25;2016-05-10;INTERN-219;
'010226;010226;S009;michiel;1.0;2016-05-10;INTERN-219;
'010226;010226;S005;xander;0.25;2016-05-10;INTERN-219;
'010226;010226;S005;xander;0.75;2016-05-10;INTERN-219;
'010226;010226;S023;tim;0.25;2016-05-10;INTERN-219;
'010226;010226;S023;tim;1.0;2016-05-10;INTERN-219;
'010226;010226;S020;jimmy;0.25;2016-05-11;INTERN-219;
'010226;010226;S028;jos;0.25;2016-05-11;INTERN-219;
'010226;010226;S021;ron.peeters;0.5;2016-05-11;INTERN-219;
'010226;010226;S023;tim;0.25;2016-05-11;INTERN-219;
'010226;010226;S009;michiel;0.25;2016-05-11;INTERN-219;
'010226;010226;S005;xander;0.25;2016-05-11;INTERN-219;
'010226;010226;S024;jordi;1.0;2016-05-11;INTERN-219;
'010226;010226;S020;jimmy;0.25;2016-05-12;INTERN-219;
'010226;010226;S028;jos;0.25;2016-05-12;INTERN-219;
'010226;010226;S009;michiel;0.25;2016-05-12;INTERN-219;
'010226;010226;S024;jordi;2.0;2016-05-12;INTERN-219;
'010226;010226;S021;ron.peeters;0.25;2016-05-12;INTERN-219;
'010226;010226;S020;jimmy;0.25;2016-05-13;INTERN-219;
'010226;010226;S009;michiel;0.25;2016-05-13;INTERN-219;
'010226;010226;S020;jimmy;0.25;2016-05-17;INTERN-219;
'010226;010226;S024;jordi;1.0;2016-05-17;INTERN-219;
'010226;010226;S021;ron.peeters;0.5;2016-05-17;INTERN-219;
'010226;010226;S011;maarten.jongerius;0.25;2016-05-17;INTERN-219;
'010226;010226;S011;maarten.jongerius;0.75;2016-05-17;INTERN-219;
'010226;010226;S009;michiel;0.25;2016-05-17;INTERN-219;
'010226;010226;S009;michiel;0.5;2016-05-17;INTERN-219;
'010226;010226;S009;michiel;0.75;2016-05-17;INTERN-219;
'010226;010226;S023;tim;1.0;2016-05-17;INTERN-219;
'010226;010226;S023;tim;2.25;2016-05-17;INTERN-219;
'010226;010226;S028;jos;0.25;2016-05-17;INTERN-219;
'010226;010226;S005;xander;0.25;2016-05-17;INTERN-219;
'010226;010226;S005;xander;0.5;2016-05-17;INTERN-219;
'010226;010226;S005;xander;1.0;2016-05-17;INTERN-219;
'010226;010226;S020;jimmy;1.25;2016-05-18;INTERN-219;
'010226;010226;S024;jordi;2.0;2016-05-18;INTERN-219;
'010226;010226;S021;ron.peeters;1.25;2016-05-18;INTERN-219;
'010226;010226;S005;xander;0.75;2016-05-18;INTERN-219;
'010226;010226;S005;xander;0.5;2016-05-18;INTERN-219;
'010226;010226;S009;michiel;1.0;2016-05-18;INTERN-219;
'010226;010226;S024;jordi;1.0;2016-05-18;INTERN-219;
'010226;010226;S028;jos;1.0;2016-05-18;INTERN-219;
'010226;010226;S011;maarten.jongerius;0.25;2016-05-18;INTERN-219;
'010226;010226;S011;maarten.jongerius;1.0;2016-05-18;INTERN-219;
'010226;010226;S009;michiel;1.0;2016-05-18;INTERN-219;
'010226;010226;S020;jimmy;0.25;2016-05-19;INTERN-219;
'010226;010226;S028;jos;0.25;2016-05-19;INTERN-219;
'010226;010226;S024;jordi;1.0;2016-05-19;INTERN-219;
'010226;010226;S024;jordi;0.25;2016-05-19;INTERN-219;
'010226;010226;S009;michiel;1.75;2016-05-19;INTERN-219;
'010226;010226;S023;tim;0.25;2016-05-19;INTERN-219;
'010226;010226;S023;tim;1.0;2016-05-19;INTERN-219;
'010226;010226;S011;maarten.jongerius;0.25;2016-05-19;INTERN-219;
'010226;010226;S011;maarten.jongerius;1.0;2016-05-19;INTERN-219;
'010226;010226;S021;ron.peeters;0.5;2016-05-19;INTERN-219;
'010226;010226;S005;xander;1.0;2016-05-19;INTERN-219;
'010226;010226;S005;xander;0.25;2016-05-19;INTERN-219;
'010226;010226;S009;michiel;1.0;2016-05-19;INTERN-219;
'010226;010226;S020;jimmy;0.25;2016-05-20;INTERN-219;
'010226;010226;S009;michiel;0.25;2016-05-20;INTERN-219;
'010226;010226;S011;maarten.jongerius;0.25;2016-05-20;INTERN-219;
'010226;010226;S005;xander;0.25;2016-05-20;INTERN-219;
'010226;010226;S023;tim;0.25;2016-05-20;INTERN-219;
'010226;010226;S021;ron.peeters;0.5;2016-05-23;INTERN-219;
'010226;010226;S028;jos;0.25;2016-05-23;INTERN-219;
'010226;010226;S024;jordi;2.0;2016-05-23;INTERN-219;
'010226;010226;S024;jordi;0.25;2016-05-23;INTERN-219;
'010226;010226;S024;jordi;1.0;2016-05-23;INTERN-219;
'010226;010226;S020;jimmy;0.25;2016-05-24;INTERN-219;
'010226;010226;S024;jordi;1.0;2016-05-24;INTERN-219;
'010226;010226;S011;maarten.jongerius;0.25;2016-05-24;INTERN-219;
'010226;010226;S011;maarten.jongerius;0.75;2016-05-24;INTERN-219;
'010226;010226;S028;jos;1.0;2016-05-24;INTERN-219;
'010226;010226;S024;jordi;3.0;2016-05-24;INTERN-219;
'010226;010226;S024;jordi;0.25;2016-05-24;INTERN-219;
'010226;010226;S009;michiel;0.25;2016-05-24;INTERN-219;
'010226;010226;S009;michiel;2.0;2016-05-24;INTERN-219;
'010226;010226;S021;ron.peeters;0.75;2016-05-24;INTERN-219;
'010226;010226;S023;tim;2.0;2016-05-24;INTERN-219;
'010226;010226;S023;tim;0.25;2016-05-24;INTERN-219;
'010226;010226;S011;maarten.jongerius;2.0;2016-05-24;INTERN-219;
'010226;010226;S023;tim;0.5;2016-05-24;INTERN-219;
'010226;010226;S020;jimmy;0.25;2016-05-25;INTERN-219;
'010226;010226;S009;michiel;0.25;2016-05-25;INTERN-219;
'010226;010226;S021;ron.peeters;0.75;2016-05-25;INTERN-219;
'010226;010226;S024;jordi;0.5;2016-05-25;INTERN-219;
'010226;010226;S024;jordi;0.25;2016-05-25;INTERN-219;
'010226;010226;S005;xander;0.25;2016-05-25;INTERN-219;
'010226;010226;S028;jos;0.25;2016-05-25;INTERN-219;
'010226;010226;S024;jordi;2.0;2016-05-25;INTERN-219;
'010226;010226;S023;tim;0.25;2016-05-25;INTERN-219;
'010226;010226;S011;maarten.jongerius;0.25;2016-05-25;INTERN-219;
'010226;010226;S020;jimmy;0.25;2016-05-26;INTERN-219;
'010226;010226;S005;xander;1.0;2016-05-26;INTERN-219;
'010226;010226;S005;xander;1.0;2016-05-26;INTERN-219;
'010226;010226;S024;jordi;1.0;2016-05-26;INTERN-219;
'010226;010226;S009;michiel;0.25;2016-05-26;INTERN-219;
'010226;010226;S009;michiel;1.0;2016-05-26;INTERN-219;
'010226;010226;S011;maarten.jongerius;0.25;2016-05-26;INTERN-219;
'010226;010226;S024;jordi;0.5;2016-05-26;INTERN-219;
'010226;010226;S024;jordi;0.25;2016-05-26;INTERN-219;
'010226;010226;S024;jordi;0.5;2016-05-26;INTERN-219;
'010226;010226;S023;tim;0.25;2016-05-26;INTERN-219;
'010226;010226;S023;tim;0.5;2016-05-26;INTERN-219;
'010226;010226;S028;jos;1.0;2016-05-26;INTERN-219;
'010226;010226;S021;ron.peeters;0.5;2016-05-26;INTERN-219;
'010226;010226;S020;jimmy;0.25;2016-05-27;INTERN-219;
'010226;010226;S009;michiel;0.25;2016-05-27;INTERN-219;
'010226;010226;S024;jordi;0.25;2016-05-27;INTERN-219;
'010226;010226;S023;tim;0.25;2016-05-27;INTERN-219;
'010226;010226;S005;xander;0.25;2016-05-30;INTERN-219;
'010226;010226;S007;martin.molenkamp;9.0;2016-05-30;INTERN-219;
'010226;010226;S024;jordi;0.25;2016-05-30;INTERN-219;
'010226;010226;S020;jimmy;0.25;2016-05-31;INTERN-219;
'010226;010226;S028;jos;0.5;2016-05-31;INTERN-219;
'010226;010226;S007;martin.molenkamp;8.0;2016-05-31;INTERN-219;
'010226;010226;S005;xander;1.0;2016-05-31;INTERN-219;
'010226;010226;S005;xander;0.5;2016-05-31;INTERN-219;
'010226;010226;S024;jordi;0.5;2016-05-31;INTERN-219;
'010226;010226;S024;jordi;1.25;2016-05-31;INTERN-219;
'010226;010226;S011;maarten.jongerius;0.5;2016-05-31;INTERN-219;
'010226;010226;S011;maarten.jongerius;0.75;2016-05-31;INTERN-219;
'010226;010226;S009;michiel;2.5;2016-05-31;INTERN-219;
'010226;010226;S024;jordi;1.0;2016-05-31;INTERN-219;
'010226;010226;S021;ron.peeters;0.25;2016-05-31;INTERN-219;
'010226;010226;S023;tim;0.5;2016-05-31;INTERN-219;
'010226;010226;S023;tim;1.5;2016-05-31;INTERN-219;
'010226;010226;S024;jordi;1.0;2016-05-18;INTERN-221;
'010226;010226;S024;jordi;1.0;2016-04-26;INTERN-222;
'010226;010226;S024;jordi;1.0;2016-05-10;INTERN-222;
'010226;010226;S024;jordi;3.25;2016-05-13;INTERN-222;
'010226;010226;S024;jordi;0.5;2016-05-26;INTERN-223;
'010226;010226;S033;martijn.snijder;2.0;2016-05-26;INTERN-223;
'010226;010226;S024;jordi;2.75;2016-05-26;INTERN-223;
'010226;010226;S021;ron.peeters;3.5;2016-05-30;INTERN-223;
'010226;010226;S021;ron.peeters;3.5;2016-05-30;INTERN-223;
'010226;010226;S021;ron.peeters;3.5;2016-05-30;INTERN-223;
'010226;010226;S021;ron.peeters;3.5;2016-05-30;INTERN-223;
'010226;010226;S021;ron.peeters;3.5;2016-05-30;INTERN-223;
'010226;010226;S021;ron.peeters;3.5;2016-05-30;INTERN-223;
'010226;010226;S021;ron.peeters;3.5;2016-05-30;INTERN-223;
'010226;010226;S021;ron.peeters;3.5;2016-05-30;INTERN-223;
'010226;010226;S021;ron.peeters;3.5;2016-05-30;INTERN-223;
'010226;010226;S021;ron.peeters;3.5;2016-05-30;INTERN-223;
'010226;010226;S021;ron.peeters;3.5;2016-05-30;INTERN-223;
'010226;010226;S021;ron.peeters;3.5;2016-05-30;INTERN-223;
'010226;010226;S021;ron.peeters;3.5;2016-05-30;INTERN-223;
'010226;010226;S021;ron.peeters;3.5;2016-05-30;INTERN-223;
'010226;010226;S021;ron.peeters;3.5;2016-05-30;INTERN-223;
'010226;010226;S021;ron.peeters;3.5;2016-05-30;INTERN-223;
'010226;010226;S021;ron.peeters;3.5;2016-05-30;INTERN-223;
'010226;010226;S021;ron.peeters;3.5;2016-05-30;INTERN-223;
'010226;010226;S021;ron.peeters;3.5;2016-05-30;INTERN-223;
'010226;010226;S021;ron.peeters;3.5;2016-05-30;INTERN-223;
'010226;010226;S021;ron.peeters;3.5;2016-05-30;INTERN-223;
'010226;010226;S021;ron.peeters;3.5;2016-05-30;INTERN-223;
'010226;010226;S021;ron.peeters;3.5;2016-05-30;INTERN-223;
'010226;010226;S021;ron.peeters;3.5;2016-05-30;INTERN-223;
'010226;010226;S021;ron.peeters;3.5;2016-05-30;INTERN-223;
'010226;010226;S021;ron.peeters;3.5;2016-05-30;INTERN-223;
'010226;010226;S021;ron.peeters;3.5;2016-05-30;INTERN-223;
'010226;010226;S021;ron.peeters;3.5;2016-05-30;INTERN-223;
'010226;010226;S021;ron.peeters;3.5;2016-05-30;INTERN-223;
'010226;010226;S021;ron.peeters;3.5;2016-05-30;INTERN-223;
'010226;010226;S021;ron.peeters;3.5;2016-05-30;INTERN-223;
'010226;010226;S021;ron.peeters;3.5;2016-05-30;INTERN-223;
'010226;010226;S021;ron.peeters;3.5;2016-05-30;INTERN-223;
'010226;010226;S021;ron.peeters;3.5;2016-05-30;INTERN-223;
'010226;010226;S021;ron.peeters;6.0;2016-04-12;MAG-32;
'010226;010226;S021;ron.peeters;2.0;2016-05-31;MAG-33;
'010226;010226;S024;jordi;0.5;2016-05-13;SHOPW-6;
'010226;010226;S031;floris.veenhuis;4.0;2016-04-06;TSWC-3;
'010226;010226;S031;floris.veenhuis;6.5;2016-04-13;TSWC-3;
'010226;010226;S031;floris.veenhuis;7.5;2016-04-20;TSWC-3;
'010226;010226;S031;floris.veenhuis;3.0;2016-05-18;TSWC-3;
'010226;010226;S031;floris.veenhuis;5.0;2016-05-25;TSWC-3;
'010226;010226;S031;floris.veenhuis;5.5;2016-05-02;TSWC-4;
'010226;010226;S031;floris.veenhuis;7.5;2016-05-11;TSWC-4;
'010226;010226;S031;floris.veenhuis;5.0;2016-05-18;TSWC-4;
'010226;010226;S021;ron.peeters;1.25;2016-04-05;ANS-24;
';;S007;martin.molenkamp;2.0;2016-04-05;AFAS-27;
';;S007;martin.molenkamp;1.5;2016-04-06;AFAS-27;
';;S007;martin.molenkamp;2.0;2016-04-22;AFAS-27;
';;S024;jordi;0.25;2016-04-11;BUMA-67;
';;S020;jimmy;1.0;2016-05-03;FOT-1;
';;S020;jimmy;3.0;2016-05-03;FOT-1;
';;S023;tim;0.5;2016-05-03;FOT-1;
';;S020;jimmy;1.0;2016-05-04;FOT-1;
';;S024;jordi;1.0;2016-04-20;MPZ-234;
';;S023;tim;1.0;2016-05-11;OD-40;
';;S011;maarten.jongerius;8.25;2016-04-29;OD-52;
';;S017;johan.kragt;2.0;2016-05-23;PAVO-287;
';;S017;johan.kragt;1.0;2016-05-23;PAVO-312;
';;S020;jimmy;0.5;2016-05-03;RED-38;
';;S020;jimmy;2.5;2016-04-13;MPZ-208;
';;S021;ron.peeters;2.0;2016-04-12;MAG-17;
