022258;Warchild;WARCHILD-11;7200;1.5;Quality Control
022258;Warchild;WARCHILD-13;10800;2.5;Quality Control
022258;Warchild;WARCHILD-15;18000;3;Quality Control
022258;Warchild;WARCHILD-17;28800;3.75;Quality Control
022258;Warchild;WARCHILD-2;3600;1;In Progress
022258;Warchild;WARCHILD-23;43200;5;Ready For Team
022258;Warchild;WARCHILD-24;43200;16;In Progress
022258;Warchild;WARCHILD-27;3600;1.5;Quality Control
022258;Warchild;WARCHILD-29;7200;1;Quality Control
022258;Warchild;WARCHILD-30;28800;0.5;Quality Control
022258;Warchild;WARCHILD-33;10800;1.75;Quality Control
022258;Warchild;WARCHILD-4;7200;1.5;Quality Control
022258;Warchild;WARCHILD-7;14400;2.25000006;Quality Control
022258;Warchild;WARCHILD-9;7200;2;Quality Control
022257;Dekrachtvanmarktplaats.nl;DKVM-1;3600;0.5;Done
022257;Dekrachtvanmarktplaats.nl;DKVM-10;10800;1.5;Done
022257;Dekrachtvanmarktplaats.nl;DKVM-5;43200;25;New
022228;IDA Foundation;IDA-1;;29;Ready For Team
022191;Doseer;DOS-31;;2.5;Ready For Team
022191;Doseer;DOS-32;;1.5;Closed
022191;Doseer;DOS-34;;2;Ready For Team
022191;Doseer;DOS-18;18000;1.75;In Progress
022191;Doseer;DOS-19;10800;2;Ready For Team
022191;Doseer;DOS-5;3600;1;Need More Info
022137;Magento 2 template;MAGT2-64;594000;1;Ready For Team
022110;Deloitte;DLT-3;116100;2.5;Done
022110;Deloitte;DLT-6;11700;1.75;Done
022110;Deloitte;DLT-12;90900;1.5;Done
022110;Deloitte;DLT-19;46800;18.5;Approve Functionality
022110;Deloitte;DLT-20;15300;4.75;Approve Functionality
022110;Deloitte;DLT-21;28800;3.75;Approve Functionality
022110;Deloitte;DLT-22;46800;12;Approve Functionality
022110;Deloitte;DLT-23;10800;1.25;Approve Functionality
022110;Deloitte;DLT-25;21600;6;Done
022110;Deloitte;DLT-26;28800;8;Done
022110;Deloitte;DLT-27;46800;13;Quality Control
022110;Deloitte;DLT-4;104400;27.5;Done
022110;Deloitte;DLT-41;50400;5;In Progress
022110;Deloitte;DLT-2;171000;8.25;Ready For Team
022110;Deloitte;DLT-10;13500;1;Ready For Team
022110;Deloitte;DLT-28;28800;8;Approve Functionality
022110;Deloitte;DLT-29;18000;3.25;Quality Control
022084;Eteha;ETH-6;;2;Ready For Team
022029;Advisie;AD-8;10800;3.25;Done
022023;Verbunt Hockey;VBH-51;;0.5;Done
022023;Verbunt Hockey;VBH-52;10800;6;Done
022022;Sportvoeding;SPOR-51;18000;3.33333334;Done
022022;Sportvoeding;SPOR-54;10800;5.75;Done
022022;Sportvoeding;SPOR-58;3600;1.75;Done
022022;Sportvoeding;SPOR-60;3600;1.25;Done
022022;Sportvoeding;SPOR-61;0;1.75;Done
022022;Sportvoeding;SPOR-63;3600;1;Done
022022;Sportvoeding;SPOR-65;;0.25;Ready For Team
022021;Mustad;MUS-171;;0.45;Ready For Team
022021;Mustad;MUS-178;;4;Done
022021;Mustad;MUS-179;;2.5;Done
022020;Importtoys;IM-12;;1.5;Done
022020;Importtoys;IM-13;3600;1;Done
022020;Importtoys;IM-14;;1.5;Done
022020;Importtoys;IM-8;;5.75;Done
022019;Christianwinecellars;WINE-19;25200;1;Ready For Team
022016;Babboe;BAB-186;;1;Done
022016;Babboe;BAB-198;;0.25;Done
022016;Babboe;BAB-199;;0.5;Done
022016;Babboe;BAB-201;0;1;Done
022016;Babboe;BAB-204;;0.5;Ready For Team
022016;Babboe;BAB-178;10800;1.25;Done
022016;Babboe;BAB-183;10800;1;Done
022016;Babboe;BAB-193;;0.5;Done
022016;Babboe;BAB-123;0;0.25;In Progress
022016;Babboe;BAB-190;13500;1.25;Approve Functionality
022016;Babboe;BAB-192;12600;4.5;Approve Functionality
022016;Babboe;BAB-195;0;0.25;Approve Functionality
022016;Babboe;BAB-196;0;0.25;Approve Functionality
022016;Babboe;BAB-200;0;5;Approve Functionality
022016;Babboe;BAB-202;;1.25;Approve Hours
021748;FotoFlits;FOT-21;10800;4.5;Done
021748;FotoFlits;FOT-23;7200;1.25;Done
021748;FotoFlits;FOT-25;3600;1;Done
021748;FotoFlits;FOT-31;7200;2.25;Done
021748;FotoFlits;FOT-22;18000;4;In Progress
021748;FotoFlits;FOT-24;7200;13.75;In Progress
021748;FotoFlits;FOT-26;16200;4.5;In Progress
021748;FotoFlits;FOT-27;18000;8;In Progress
021748;FotoFlits;FOT-28;10800;5.5;In Progress
021748;FotoFlits;FOT-32;18000;13.25;Ready For Team
021748;FotoFlits;FOT-43;0;22.25;Quality Control
021748;FotoFlits;FOT-44;;0.5;Ready For Team
021707;Leger Des Heils;LDH-32;57600;0.75;Done
021619;In2Brands;IN-29;;0.25;Ready For Team
021619;In2Brands;IN-41;;2;Done
021619;In2Brands;IN-46;;2;Done
021619;In2Brands;IN-23;18000;12;Done
021619;In2Brands;IN-44;;1;Done
021619;In2Brands;IN-42;10800;3;Done
021619;In2Brands;IN-43;;6.25;Done
021617;About Art;AM-41;;0.75;Done
021617;About Art;AM-12;3600;1.5;In Progress
021617;About Art;AM-66;1800;4.5;Closed
021499;PitPoint;PIT-281;;1;Ready For Team
021499;PitPoint;PIT-283;10800;3;Quality Control
021499;PitPoint;PIT-284;18000;5.75;Approve Functionality
021499;PitPoint;PIT-286;28800;16;Quality Control
021499;PitPoint;PIT-287;18000;0.5;Quality Control
021499;PitPoint;PIT-272;10800;10;Done
021499;PitPoint;PIT-274;25200;7;Done
021499;PitPoint;PIT-282;;1;Done
021498;Shea Mooti;SMT-122;;0.25;Ready For Team
021392;BBA Pumps;BBA-38;;3;Done
021282;Sanbio;SAN-5;3600;2;Done
020987;PAVO;PAVO-326;3600;1;Ready For Team
020987;PAVO;PAVO-329;3600;1;Approve Functionality
020945;Oneway Distribution;OD-120;12600;3.5;Done
020945;Oneway Distribution;OD-122;;0.5;Done
020945;Oneway Distribution;OD-133;;6.75;Done
020945;Oneway Distribution;OD-134;7200;4.25;Done
020945;Oneway Distribution;OD-143;3600;1.25;Done
020945;Oneway Distribution;OD-144;3600;1.49999996;Done
020945;Oneway Distribution;OD-145;;2.5;Done
020945;Oneway Distribution;OD-149;3600;1;Done
020945;Oneway Distribution;OD-86;;1.5;Done
020945;Oneway Distribution;OD-107;10800;1.5;Approve Functionality
020945;Oneway Distribution;OD-110;28800;4.25;Ready For Team
020945;Oneway Distribution;OD-112;28800;0.25;Approve Hours
020945;Oneway Distribution;OD-116;7200;2;Approve Functionality
020945;Oneway Distribution;OD-118;;0.75;Done
020945;Oneway Distribution;OD-119;;0.41666666;Done
020945;Oneway Distribution;OD-121;;0.75;Done
020945;Oneway Distribution;OD-123;0;10.25;In Progress
020945;Oneway Distribution;OD-126;;1.5;Done
020945;Oneway Distribution;OD-132;7200;2;Done
020945;Oneway Distribution;OD-75;7200;31.5;Done
020945;Oneway Distribution;OD-77;46800;1.5;Done
020945;Oneway Distribution;OD-85;780;0.5;Done
020945;Oneway Distribution;OD-128;10800;2.25;Done
020945;Oneway Distribution;OD-130;7200;1;Approve Functionality
020945;Oneway Distribution;OD-131;3600;1.25;Done
020945;Oneway Distribution;OD-135;10800;4;Done
020945;Oneway Distribution;OD-76;11700;31.25;Done
020885;Redlink;RED-120;0;2;Ready For Team
020885;Redlink;RED-132;;5.5;Closed
020885;Redlink;RED-199;;0.5;New
020885;Redlink;RED-101;18000;0.5;Approve Functionality
020885;Redlink;RED-103;100800;11;Done
020885;Redlink;RED-105;28800;8.75;Done
020885;Redlink;RED-108;14400;7.5;Done
020885;Redlink;RED-109;10800;3;Done
020885;Redlink;RED-110;144000;28.5;Done
020885;Redlink;RED-112;7200;2.25;Done
020885;Redlink;RED-115;10800;3;Done
020885;Redlink;RED-135;7200;2;Done
020885;Redlink;RED-136;18000;5;Done
020885;Redlink;RED-137;10800;3.5;Done
020885;Redlink;RED-138;10800;3;Done
020885;Redlink;RED-139;10800;3.25;Done
020885;Redlink;RED-143;18000;5.5;Done
020885;Redlink;RED-145;28800;6.5;Done
020885;Redlink;RED-146;28800;8;Done
020885;Redlink;RED-147;46800;13;Done
020885;Redlink;RED-148;0;5;Done
020885;Redlink;RED-150;0;39;Done
020885;Redlink;RED-152;1800;18;Done
020885;Redlink;RED-157;7200;0.75;Done
020885;Redlink;RED-167;12600;1.5;Done
020885;Redlink;RED-149;0;4;Done
020885;Redlink;RED-153;10800;1.5;Done
020885;Redlink;RED-170;0;0.5;Done
020885;Redlink;RED-9;10800;0.75;Done
020641;Marktplaats Zakelijk;MPZ-326;;2;Done
020641;Marktplaats Zakelijk;MPZ-350;18000;2.5;Done
020641;Marktplaats Zakelijk;MPZ-258;28800;3;Done
020641;Marktplaats Zakelijk;MPZ-259;15300;3.75;Done
020641;Marktplaats Zakelijk;MPZ-291;18000;3.25;Done
020641;Marktplaats Zakelijk;MPZ-292;28800;7.25;Done
020641;Marktplaats Zakelijk;MPZ-294;18000;5.5;Done
020641;Marktplaats Zakelijk;MPZ-295;18000;1.5;Done
020641;Marktplaats Zakelijk;MPZ-297;18000;5;Done
020641;Marktplaats Zakelijk;MPZ-299;18000;3;Done
020641;Marktplaats Zakelijk;MPZ-300;10800;1;Done
020641;Marktplaats Zakelijk;MPZ-310;18000;4.5;Done
020641;Marktplaats Zakelijk;MPZ-311;43200;2;Done
020641;Marktplaats Zakelijk;MPZ-296;2700;7.25;Done
020641;Marktplaats Zakelijk;MPZ-301;5400;1.5;Done
020641;Marktplaats Zakelijk;MPZ-305;14400;2;Done
020641;Marktplaats Zakelijk;MPZ-306;14400;3;Done
020641;Marktplaats Zakelijk;MPZ-307;7200;1.75;Done
020641;Marktplaats Zakelijk;MPZ-329;28800;7.75;Done
020641;Marktplaats Zakelijk;MPZ-309;7200;2;Done
020641;Marktplaats Zakelijk;MPZ-340;21600;4;Approve Functionality
020641;Marktplaats Zakelijk;MPZ-341;10800;1.75;Quality Control
020641;Marktplaats Zakelijk;MPZ-342;7200;1.5;Approve Functionality
020641;Marktplaats Zakelijk;MPZ-343;7200;1.75;Done
020641;Marktplaats Zakelijk;MPZ-344;3600;1;Ready For Team
020641;Marktplaats Zakelijk;MPZ-345;18000;4.5;Quality Control
020641;Marktplaats Zakelijk;MPZ-347;1800;1.5;Quality Control
020641;Marktplaats Zakelijk;MPZ-348;1800;0.75;Done
020641;Marktplaats Zakelijk;MPZ-349;7200;1.5;Quality Control
020641;Marktplaats Zakelijk;MPZ-241;28800;10.25;Done
020641;Marktplaats Zakelijk;MPZ-240;0;2.5;Ready For Team
020641;Marktplaats Zakelijk;MPZ-278;14400;4;Ready For Team
020641;Marktplaats Zakelijk;MPZ-281;12600;10;Done
020641;Marktplaats Zakelijk;MPZ-336;0;5;Done
020641;Marktplaats Zakelijk;MPZ-337;10800;3;Done
020283;Billink;BIL-174;10800;3.25;Done
020283;Billink;BIL-175;3600;1;Done
020283;Billink;BIL-176;3600;0.75;Done
020283;Billink;BIL-177;10800;1.5;In Progress
020283;Billink;BIL-178;;2;Done
019973;Reginox;REG-357;;0.75;Done
019973;Reginox;REG-358;10800;3.99999996;Approve Functionality
019973;Reginox;REG-359;10800;2;Done
019973;Reginox;REG-360;10800;2.25;Done
019973;Reginox;REG-361;28800;17;Quality Control
019973;Reginox;REG-362;;1;Done
019973;Reginox;REG-364;;0.25;Done
019973;Reginox;REG-365;28800;0.25;Approve Hours
019973;Reginox;REG-366;18000;0.25;Ready For Team
019973;Reginox;REG-332;0;0.25;Ready For Team
019973;Reginox;REG-335;18000;3.75;Done
019973;Reginox;REG-343;18000;0.5;Done
019973;Reginox;REG-348;10800;5;Done
019558;That's IT;THT-329;;2.25;Ready For Team
019558;That's IT;THT-337;;0.33333334;Done
019558;That's IT;THT-293;7200;0.5;Ready For Team
019558;That's IT;THT-323;10800;2.75;Done
019558;That's IT;THT-330;28800;6;Approve Functionality
019558;That's IT;THT-336;10800;4;Done
019558;That's IT;THT-338;18000;4.5;Approve Functionality
019558;That's IT;THT-339;7200;1.5;Done
019558;That's IT;THT-343;57600;13;Approve Functionality
019515;Deal 75;DEAL-22;28800;4;In Progress
019515;Deal 75;DEAL-25;0;7;Done
019515;Deal 75;DEAL-29;2700;44.5;In Progress
019406;Nibud;NIB-49;3600;1;Done
019406;Nibud;NIB-52;;0.5;Done
019406;Nibud;NIB-53;10800;3;Done
019405;Buma;BUMA-83;;2;Ready For Team
019405;Buma;BUMA-84;28800;15;Done
019405;Buma;BUMA-90;18000;10.75;Done
019405;Buma;BUMA-91;18000;4.5;Done
019405;Buma;BUMA-94;;1.75;Done
019405;Buma;BUMA-95;3600;2.25;Done
019405;Buma;BUMA-96;3600;1;Done
019405;Buma;BUMA-89;0;0.5;Need More Info
017388;Vitanova;VITA-186;;0.25;Closed
017388;Vitanova;VITA-187;3600;1.25;Done
017388;Vitanova;VITA-189;;0.25;Ready For Team
017388;Vitanova;VITA-184;18000;5;Done
017381;Sentimo;SEN-179;18000;5.25;Done
017381;Sentimo;SEN-182;;0.75;Closed
017381;Sentimo;SEN-183;;1.25;Closed
017359;Esra;ESRA-61;10800;0.5;Done
017359;Esra;ESRA-67;;1;Done
017359;Esra;ESRA-69;;0.5;Done
017359;Esra;ESRA-70;28800;0.5;Approve Hours
017359;Esra;ESRA-65;0;3.5;In Progress
017359;Esra;ESRA-66;17100;3.75;Done
010226-1;Intern - ShopWorks vakantie;ISV-2;;0;Ready For Team
010226-1;Intern - ShopWorks vakantie;ISV-3;;0;Ready For Team
010226;Deloitte;DLT-1;43200;0.5;Done
010226;Intern;INTERN-185;;0;Ready For Team
010226;Intern;INTERN-186;;0;Ready For Team
010226;Intern;INTERN-187;;0;Ready For Team
010226;Intern;INTERN-188;;0;Ready For Team
010226;Intern;INTERN-194;;0;Ready For Team
010226;Intern;INTERN-209;0;12.25;Ready For Team
010226;Intern;INTERN-218;;20;Ready For Team
010226;Intern;INTERN-219;;0;Ready For Team
010226;Intern;INTERN-220;18000;0.5;Ready For Team
010226;Intern;INTERN-221;;1;Done
010226;Intern;INTERN-222;;4.25;Ready For Team
010226;Intern;INTERN-223;;8.75;Done
010226;Intershop SAAS;IS-30;28800;16;New
010226;Intershop SAAS;IS-50;;0.5;New
010226;Intershop SAAS;IS-54;86400;8;New
010226;Intershop SAAS;IS-57;57600;8;New
010226;Intershop SAAS;IS-58;57600;16;New
010226;Intershop SAAS;IS-59;57600;4;New
010226;Intershop SAAS;IS-60;57600;12;New
010226;Intershop SAAS;IS-61;86400;8;New
010226;Intershop SAAS;IS-63;57600;4;New
010226;Intershop SAAS;IS-64;151200;116;New
010226;Intershop SAAS;IS-66;;37;New
010226;Intershop SAAS;IS-67;115200;31;New
010226;Intershop SAAS;IS-68;;12;New
010226;Intershop SAAS;IS-69;;4;New
010226;Intern - ShopWorks vakantie;ISV-1;;0;Ready For Team
010226;Taskforce - Magento 2.0;MAG-33;7200;2;In Progress
010226;Taskforce - Content;TSWC-3;72000;8;Ready For Team
010226;Taskforce - Content;TSWC-4;72000;18;Ready For Team
